0,1896351049624428,-0.010767702,0.0011964113,9.762118
0,1896351051849482,-0.010767702,-0.013160525,9.795618
0,1896351054089604,-0.034695927,0.0059820567,9.795618
1,1896351056365605,0.0,0.0036651916,6.1086525E-4
0,1896351056365605,-0.034695927,-0.01794617,9.785448
1,1896351058642990,0.0,-0.0,0.0016798794
0,1896351058642990,-0.034695927,-0.022731815,9.795019
1,1896351060901066,0.002443461,0.0012217305,-6.1086525E-4
0,1896351060901066,-0.039481573,-0.01794617,9.799805
1,1896351063175419,0.002443461,-0.002443461,-7.6358154E-4
0,1896351063175419,-0.029910283,-0.01794617,9.780663
1,1896351065454228,-0.0012217305,-0.0012217305,0.0016798794
0,1896351065454228,-0.025124637,-0.022731815,9.785448
1,1896351067728154,0.0012217305,0.004886922,-6.1086525E-4
0,1896351067728154,-0.025124637,-0.0035892338,9.795618
1,1896351069998600,0.0,-0.0,-7.6358154E-4
0,1896351069998600,-0.025124637,-0.013160525,9.780663
1,1896351072266483,0.0,0.0036651916,-0.0018325958
0,1896351072266483,-0.04426722,-0.013160525,9.775877
1,1896351074537236,0.0012217305,0.0036651916,6.1086525E-4
0,1896351074537236,-0.049052864,-0.008374879,9.771091
1,1896351076808721,0.0,0.002443461,-6.1086525E-4
0,1896351076808721,-0.058624156,-0.008374879,9.780663
1,1896351079078191,-0.0012217305,-0.0,4.5814895E-4
0,1896351079078191,-0.058624156,-0.02751746,9.790234
1,1896351081348760,-0.0012217305,-0.0,4.5814895E-4
0,1896351081348760,-0.039481573,-0.02751746,9.795019
1,1896351083619206,-0.0012217305,-0.002443461,-7.6358154E-4
0,1896351083619206,-0.034695927,-0.032303106,9.795019
2,1896351085604497,20.288599,40.382,-46.055
1,1896351085887273,0.0012217305,0.0012217305,-0.001985312
0,1896351085887273,-0.010767702,-0.02751746,9.7908325
1,1896351088149846,-0.002443461,0.002443461,0.0016798794
0,1896351088149846,-0.034695927,0.0011964113,9.776475
1,1896351090431584,-0.002443461,0.004886922,-6.1086525E-4
0,1896351090431584,-0.04426722,-0.02751746,9.775877
1,1896351092702641,0.0012217305,0.008399397,-0.0018325958
0,1896351092702641,-0.034695927,-0.013160525,9.785448
1,1896351094975652,-0.002443461,0.0012217305,-0.001985312
0,1896351094975652,-0.049052864,-0.008374879,9.785448
2,1896351095594243,21.6428,41.0164,-45.9696
1,1896351097238896,0.0012217305,-0.0012217305,-7.6358154E-4
0,1896351097238896,-0.039481573,-0.01794617,9.795019
1,1896351099514043,-0.0036651916,-0.0061086523,4.5814895E-4
0,1896351099514043,-0.05383851,-0.02751746,9.775877
1,1896351101784489,-0.002443461,-0.002443461,4.5814895E-4
0,1896351101784489,-0.049052864,-0.008374879,9.780663
1,1896351104056706,0.0,0.0012217305,-0.001985312
0,1896351104056706,-0.049052864,-0.008374879,9.775877
2,1896351105597905,22.0942,41.0774,-45.103397
1,1896351106326603,0.0,0.0012217305,-0.001985312
0,1896351106326603,-0.04426722,-0.013160525,9.795019
1,1896351108594792,0.0012217305,0.0012217305,-7.6358154E-4
0,1896351108594792,-0.039481573,-0.013160525,9.766306
1,1896351110867375,-0.0012217305,0.0035124752,-0.0018325958
0,1896351110867375,-0.039481573,-0.02751746,9.771091
1,1896351113138737,0.0,0.0012217305,4.5814895E-4
0,1896351113138737,-0.034695927,-0.02751746,9.775877
1,1896351115408757,0.0,0.0036651916,6.1086525E-4
0,1896351115408757,-0.025124637,-0.03708875,9.775877
2,1896351115587651,21.264599,40.6016,-45.75
1,1896351117678898,-0.0012217305,-0.0,-0.0032070426
0,1896351117678898,-0.039481573,-0.02751746,9.780663
1,1896351119948551,-0.002443461,0.0012217305,4.5814895E-4
0,1896351119948551,-0.029910283,-0.022731815,9.785448
1,1896351122220342,-0.0012217305,-0.002443461,-0.001985312
0,1896351122220342,-0.020338992,-0.013160525,9.795618
1,1896351124490850,-0.0012217305,-0.002443461,4.5814895E-4
0,1896351124490850,-0.010767702,-0.022731815,9.800404
2,1896351125604497,21.35,40.5284,-46.7992
1,1896351126761846,0.002443461,-0.0,-7.6358154E-4
0,1896351126761846,-0.015553347,-0.02751746,9.776475
1,1896351129029851,-0.0012217305,0.0012217305,-7.6358154E-4
0,1896351129029851,-0.010767702,-0.01794617,9.7908325
1,1896351131292912,0.0,0.0012217305,4.5814895E-4
0,1896351131292912,-0.0059820567,-0.013160525,9.776475
1,1896351133573612,0.002443461,0.0036651916,-6.1086525E-4
0,1896351133573612,0.0029910284,-0.02751746,9.795618
2,1896351135604253,21.7526,41.052998,-45.628
1,1896351135841252,0.0,0.0012217305,-0.001985312
0,1896351135841252,-0.0011964113,-0.032303106,9.795618
1,1896351138105901,0.0012217305,-0.002443461,-0.0032070426
0,1896351138105901,0.0035892338,-0.02751746,9.786046
1,1896351140382512,-0.0012217305,-0.0,-7.6358154E-4
0,1896351140382512,0.008374879,-0.022731815,9.7812605
1,1896351142644719,0.0012217305,-0.0,-7.6358154E-4
0,1896351142644719,0.017347964,-0.032303106,9.776475
1,1896351144929753,0.0012217305,-0.004886922,-0.001985312
0,1896351144929753,0.012562319,-0.01794617,9.776475
2,1896351145592778,20.7278,40.7602,-46.2502
1,1896351147197698,-0.0012217305,-0.004886922,-7.6358154E-4
0,1896351147197698,0.01794617,-0.032303106,9.766904
1,1896351149471989,-0.002443461,0.002443461,-7.6358154E-4
0,1896351149471989,0.017347964,-0.02751746,9.776475
1,1896351151735966,0.0,0.004886922,6.1086525E-4
0,1896351151735966,0.012562319,-0.022731815,9.800404
1,1896351153998661,0.002443461,-0.0,-0.001985312
0,1896351153998661,0.013160525,-0.046660043,9.7812605
2,1896351155604497,21.850199,41.236,-46.725998
1,1896351156276738,0.0,0.0012217305,-0.0032070426
0,1896351156276738,0.02213361,-0.032303106,9.776475
1,1896351158538945,-0.002443461,0.0012217305,-7.6358154E-4
0,1896351158538945,0.008374879,-0.041874398,9.771689
1,1896351160823857,0.002443461,0.0036651916,-0.0018325958
0,1896351160823857,0.026919255,-0.032303106,9.766904
1,1896351163088994,0.0038179078,-0.0012217305,-0.0032070426
0,1896351163088994,0.026919255,-0.041874398,9.762118
1,1896351165353947,-0.0012217305,-0.0036651916,-0.001985312
0,1896351165353947,0.012562319,-0.013160525,9.7812605
2,1896351165592534,21.728199,40.979797,-45.6158
1,1896351167634465,-0.002443461,-0.0061086523,-0.001985312
0,1896351167634465,0.008374879,-0.02751746,9.757333
1,1896351169903935,-0.002443461,-0.0012217305,4.5814895E-4
0,1896351169903935,-0.0011964113,-0.02751746,9.776475
1,1896351172177372,0.0,-0.004886922,-7.6358154E-4
0,1896351172177372,0.013160525,-0.013160525,9.752547
1,1896351174444645,0.0012217305,-0.0012217305,-7.6358154E-4
0,1896351174444645,-0.010767702,-0.0035892338,9.719048
2,1896351175604253,21.8014,40.8334,-46.3234
1,1896351176715947,0.0012217305,0.002443461,-0.0018325958
0,1896351176715947,-0.014955142,-0.013160525,9.584451
1,1896351178984502,0.0013744468,-0.010995574,-0.001985312
0,1896351178984502,-0.101694964,-0.10049855,7.2849483
1,1896351181242436,0.0025961774,-0.037873644,3.0543262E-4
0,1896351181242436,-0.12861422,-0.23389842,4.3674994
1,1896351183515568,0.007483099,-0.002443461,4.5814895E-4
0,1896351183515568,-0.124426775,-0.05922236,8.32463
2,1896351185604253,21.532999,41.0896,-45.3596
1,1896351185792485,0.01572978,0.1133155,-1.5271631E-4
0,1896351185792485,-0.116650105,0.5210371,18.873388
3,1896351185792485,-0.05937934,0.1303366,1.1722956
1,1896351188060673,0.020616703,0.10720685,-0.0062613687
0,1896351188060673,-0.9098708,0.81894356,15.901503
1,1896351190342350,-0.0143553335,-0.091477074,-0.012217305
0,1896351190342350,-1.2269198,0.40677986,4.1497526
1,1896351192610905,-0.042455133,-0.15012014,-0.020005837
0,1896351192610905,-0.22552353,0.15792629,6.001797
1,1896351194880864,-0.034208454,-0.008857546,-0.022907447
0,1896351194880864,0.14356937,-0.3188436,14.455042
2,1896351195592778,22.3626,41.0042,-45.994
1,1896351197137944,-0.011301007,0.11301007,-0.020922136
0,1896351197137944,-0.46660042,-1.0462617,13.716856
1,1896351199410772,0.002443461,0.063224554,-0.013897184
0,1896351199410772,-1.6181463,-0.9421739,6.1639113
1,1896351201693059,0.022602014,-0.076816306,-0.01450805
0,1896351201693059,-1.166501,-0.47258246,7.30768
1,1896351203967167,0.044898596,-0.0888809,-0.01450805
0,1896351203967167,-0.13220344,-0.5982057,13.159926
3,1896351203967167,-0.6086296,-0.43624276,0.492054
2,1896351205606694,22.9604,41.2482,-45.3596
1,1896351206233586,0.05681047,0.021991149,-0.017562376
0,1896351206233586,-0.023330022,-0.20638095,11.959328
1,1896351208491520,0.05299256,0.064599,-0.01985312
0,1896351208491520,-0.8362915,0.34516466,7.800602
1,1896351210774723,0.044593163,-0.0012217305,-0.020158553
0,1896351210774723,-0.81894356,0.57906306,6.8105717
1,1896351213045780,0.013897184,-0.042760566,-0.025350908
0,1896351213045780,-0.39361933,0.8003992,8.7673025
1,1896351215319767,-0.027947085,-0.01985312,-0.0290161
0,1896351215319767,-0.1477568,0.72263247,10.502099
2,1896351215600347,22.6554,41.236,-44.896
1,1896351217586430,-0.061391957,0.008093964,-0.022907447
0,1896351217586430,-0.11545369,0.22911277,9.710074
1,1896351219855412,-0.06154467,0.006872234,-0.011911872
0,1896351219855412,-0.20219351,-0.45583272,10.12822
1,1896351222129522,-0.04550946,-0.003970624,-0.0033597588
0,1896351222129522,0.026919255,-1.0456635,10.17488
3,1896351222129522,-0.1888773,-0.16998589,0.0022211075
1,1896351224399053,-0.013591751,-0.008552114,0.0041233404
0,1896351224399053,0.148355,-1.1078769,10.759327
2,1896351225604497,22.240599,41.0774,-45.725597
1,1896351226670232,0.020922136,-0.0071776668,0.007941248
0,1896351226670232,0.31405798,-0.7256235,9.492328
1,1896351228937139,0.04428773,-0.0035124752,0.01160644
0,1896351228937139,0.39661035,-0.28235307,9.020343
1,1896351231199406,0.04795292,0.00870483,0.009315695
0,1896351231199406,0.6843473,0.39541394,10.648061
1,1896351233481876,0.030848695,0.010995574,0.0030543262
0,1896351233481876,0.7298109,0.84825563,9.768699
2,1896351235604497,23.0336,41.211597,-45.335197
1,1896351235749333,0.0012217305,-0.004886922,0.00290161
0,1896351235749333,0.5563313,0.9296116,9.092726
1,1896351238014042,-0.033292156,-0.00992656,0.0065668016
0,1896351238014042,0.6723832,0.71665037,8.685348
1,1896351240294500,-0.055588737,-0.00992656,0.011301007
0,1896351240294500,0.6646065,0.25902304,9.540782
3,1896351240294500,0.58201534,0.42511916,-0.37765503
1,1896351242564092,-0.06429356,0.009468411,0.012675454
0,1896351242564092,0.7280163,-0.16091733,10.597812
1,1896351244837834,-0.049480084,0.005955936,0.016340645
0,1896351244837834,0.6586244,-0.5688936,10.19821
2,1896351245593267,22.3016,40.967598,-45.3596
1,1896351247105107,-0.024740042,-0.007330383,0.017562376
0,1896351247105107,0.6119644,-0.7399804,10.010972
1,1896351249376409,0.004886922,-0.019394971,0.015118915
0,1896351249376409,1.1491531,-0.5491528,10.033105
1,1896351251647831,0.030848695,-0.01450805,6.1086525E-4
0,1896351251647831,1.8137596,-0.04007978,10.262816
1,1896351253917423,0.04337143,-0.0,-0.020158553
0,1896351253917423,1.9286151,0.2650051,9.866804
2,1896351255604497,22.204,40.931,-45.261997
1,1896351256188359,0.044593163,0.020616703,-0.033444874
0,1896351256188359,1.2640085,0.37387854,9.562916
1,1896351258459355,0.02855795,0.020616703,-0.028710667
0,1896351258459355,0.48993045,0.46839502,9.1669035
3,1896351258459355,1.0953141,0.20600413,-0.13811111
1,1896351260729375,0.007483099,0.013286319,-0.009162978
0,1896351260729375,0.08075777,0.5198407,9.242277
1,1896351262997441,-0.016187929,0.012064588,0.01038471
0,1896351262997441,-0.034695927,0.5102694,9.55813
1,1896351265260624,-0.031001411,0.0061086523,0.022449298
0,1896351265260624,0.016749758,0.32422748,9.859028
2,1896351265585942,22.4236,41.0774,-45.249798
1,1896351267541143,-0.03604105,0.0061086523,0.024892759
0,1896351267541143,0.040677983,0.029312078,9.896116
1,1896351269811894,-0.02733622,-0.0012217305,0.020005837
0,1896351269811894,0.032303106,-0.20817557,9.742377
1,1896351272085331,-0.00992656,0.0012217305,0.012675454
0,1896351272085331,-0.008374879,-0.25184458,10.398011
1,1896351274355351,0.010995574,0.010995574,0.007941248
0,1896351274355351,-0.069391854,-0.15672988,10.24487
2,1896351275604253,22.5944,40.979797,-45.933
1,1896351276624577,0.023365596,0.008552114,-6.1086525E-4
0,1896351276624577,-0.25782663,0.09571291,9.626924
3,1896351276624577,0.024841866,0.04780544,0.08871651
1,1896351278894231,0.029626964,0.004886922,-0.0067195175
0,1896351278894231,-0.3056831,0.31465617,9.57488
1,1896351281164677,0.022296581,0.009773844,-0.014049901
0,1896351281164677,-0.26799613,0.4761717,9.676575
1,1896351283432439,0.0050396384,0.008399397,-0.015271631
0,1896351283432439,-0.38165522,0.485743,9.513265
2,1896351285604253,22.8872,41.3946,-44.554398
1,1896351285691289,-0.009773844,0.0047342055,-0.0154243475
0,1896351285691289,-0.4953143,0.31465617,9.478569
1,1896351287964909,-0.021991149,0.004581489,-0.014202617
0,1896351287964909,-0.6053841,0.047856454,9.798011
1,1896351290247440,-0.024587326,0.0010690142,-0.010537425
0,1896351290247440,-0.6346962,-0.25663024,10.0265255
1,1896351292521488,-0.017256944,0.0010690142,-0.004428773
0,1896351292521488,-0.6586244,-0.5138587,10.125827
1,1896351294792851,-0.0061086523,0.0010690142,-7.6358154E-4
0,1896351294792851,-0.65324056,-0.58983076,10.039685
2,1896351295593022,22.6432,41.236,-45.1156
3,1896351294792851,-0.519689,-0.18010986,0.11273193
1,1896351297059270,0.009773844,0.0036651916,0.005497787
0,1896351297059270,-0.6203393,-0.4755735,10.054641
1,1896351299330205,0.019700404,0.0036651916,0.0018325958
0,1896351299330205,-0.5772685,-0.26620153,9.906884
1,1896351301600407,0.022143865,0.004886922,-6.1086525E-4
0,1896351301600407,-0.55752766,-0.01375873,9.649655
1,1896351303871282,0.016035212,0.002443461,-0.005497787
0,1896351303871282,-0.5288138,0.16211374,9.58804
2,1896351305604253,22.265,40.8334,-44.9082
1,1896351306141850,0.0050396384,0.005955936,-0.0067195175
0,1896351306141850,-0.51445687,0.21475583,9.521041
1,1896351308412235,-0.007330383,-1.5271631E-4,-0.009315695
0,1896351308412235,-0.5240282,0.09571291,9.597013
1,1896351310683537,-0.019700404,-0.0025961774,-0.0032070426
0,1896351310683537,-0.43848476,-0.11365908,9.7501545
1,1896351312954960,-0.020922136,-0.0050396384,0.0016798794
0,1896351312954960,-0.30149564,-0.30867413,9.97508
3,1896351312954960,-0.4210493,-0.056967758,-0.03344345
1,1896351315224614,-0.016035212,0.0035124752,0.0053450707
0,1896351315224614,-0.2015953,-0.45583272,10.032507
2,1896351315592778,23.607,41.6386,-44.7496
1,1896351317496403,-0.0038179078,0.0036651916,0.0067195175
0,1896351317496403,-0.1058824,-0.503091,9.97508
1,1896351319770146,0.004886922,0.0012217305,0.005497787
0,1896351319770146,0.0029910284,-0.37447673,9.9140625
1,1896351322036809,0.012370021,-0.002443461,0.0030543262
0,1896351322036809,0.10289137,-0.21296121,9.83809
1,1896351324308232,0.014813482,0.0012217305,0.0030543262
0,1896351324308232,0.212363,-0.04127619,9.743574
2,1896351325604253,22.5944,41.0896,-45.091198
1,1896351326576604,0.009773844,0.007330383,0.0018325958
0,1896351326576604,0.21774685,0.06819545,9.610174
1,1896351328845586,0.0012217305,0.004886922,0.0018325958
0,1896351328845586,0.23688944,0.0634098,9.571889
1,1896351331108036,-0.007330383,-0.002443461,0.00290161
0,1896351331108036,0.2745764,-0.0029910284,9.629316
3,1896351331108036,0.176442,-0.013018191,-0.11722374
1,1896351333389774,-0.014813482,-0.0036651916,0.0065668016
0,1896351333389774,0.31286156,-0.10767702,9.705289
2,1896351335604497,22.472399,40.979797,-45.103397
1,1896351335658024,-0.013591751,-0.0061086523,0.011453724
0,1896351335658024,0.3361916,-0.22671995,9.844072
1,1896351337924443,-0.007483099,0.0012217305,0.011453724
0,1896351337924443,0.3930211,-0.317049,9.882358
1,1896351340198552,-0.0050396384,0.0036651916,0.016493361
0,1896351340198552,0.45044887,-0.3074777,9.906285
1,1896351342460332,0.0035124752,0.0036651916,0.020158553
0,1896351342460332,0.5072784,-0.23150559,9.84467
1,1896351344745061,0.0047342055,0.0013744468,0.021380283
0,1896351344745061,0.55034924,-0.08853444,9.768699
2,1896351345592534,22.7774,40.9188,-45.0058
1,1896351347013616,0.010995574,0.0025961774,0.018936822
0,1896351347013616,0.5838487,0.096909314,9.683753
1,1896351349288273,0.0071776668,0.0036651916,0.017715093
0,1896351349288273,0.61675006,0.22552353,9.650852
3,1896351349288273,0.54296625,0.035530027,-0.071558
1,1896351351551885,0.0035124752,0.002443461,0.014049901
0,1896351351551885,0.60717875,0.3062813,9.669994
1,1896351353813664,-1.5271631E-4,0.0036651916,0.01038471
0,1896351353813664,0.5306084,0.28235307,9.780065
2,1896351355604497,22.935999,41.357998,-44.957
1,1896351356097599,-0.0012217305,0.0036651916,0.005497787
0,1896351356097599,0.39780676,0.18723837,9.764511
1,1896351358373844,-0.0012217305,0.007330383,0.005497787
0,1896351358373844,0.33140594,0.09212367,9.696914
1,1896351360640019,0.0,0.0036651916,0.0018325958
0,1896351360640019,0.29312077,0.049052864,9.8015995
1,1896351362905034,0.004886922,0.0061086523,0.004276057
0,1896351362905034,0.30209386,0.04426722,9.893126
1,1896351365165837,0.00992656,-0.0,0.004276057
0,1896351365165837,0.27876383,0.1058824,9.873982
2,1896351365592534,22.9848,41.0652,-45.322998
1,1896351367450383,0.012370021,0.0061086523,0.004276057
0,1896351367450383,0.2548356,0.19142582,9.792626
3,1896351367450383,0.35416302,0.16741374,-0.0017366409
1,1896351369719915,0.00992656,0.0012217305,0.0018325958
0,1896351369719915,0.2883351,0.26799613,9.707084
1,1896351371990422,0.00992656,0.0036651916,-6.1086525E-4
0,1896351371990422,0.36430725,0.3056831,9.698111
1,1896351374248844,0.0062613687,-0.0012217305,-0.0032070426
0,1896351374248844,0.43609193,0.32961133,9.678967
2,1896351375604253,24.570799,41.419,-44.8838
1,1896351376531620,0.0038179078,-0.0036651916,-0.008093964
0,1896351376531620,0.49292147,0.2727818,9.693324
1,1896351378802311,0.0025961774,-0.00870483,-0.010537425
0,1896351378802311,0.60717875,0.17288144,9.78485
1,1896351381075871,0.0076358155,-0.012217305,-0.010537425
0,1896351381075871,0.7256235,0.058624156,9.899706
1,1896351383340886,0.0125227375,-0.014660766,-0.012980887
0,1896351383340886,0.8632108,-0.059820566,9.952348
1,1896351385600224,0.01740966,-0.012217305,-0.0154243475
0,1896351385600224,1.0444671,-0.111864455,9.938589
2,1896351385612065,24.217,41.3336,-44.957
3,1896351385600224,0.77423596,0.09234558,0.05240822
1,1896351387873235,0.024892759,-0.008552114,-0.02031127
0,1896351387873235,1.2251252,-0.111864455,9.920045
1,1896351390155644,0.03604105,-0.013439035,-0.021533
0,1896351390155644,1.396212,-0.064008005,9.91167
1,1896351392428898,0.04230242,-0.019547688,-0.030085113
0,1896351392428898,1.5960127,-0.020937199,9.850055
1,1896351394699833,0.044745877,-0.017104227,-0.034972034
0,1896351394699833,1.7575282,0.0317049,9.870394
2,1896351395593022,25.229599,41.8094,-44.0542
1,1896351396965398,0.043676864,-0.018325957,-0.04352415
0,1896351396965398,1.8957137,0.06999006,9.861421
1,1896351399226201,0.043676864,-0.014813482,-0.05085453
0,1896351399226201,2.0668006,0.098703936,9.8428755
1,1896351401508977,0.040011674,-0.018478673,-0.056963183
0,1896351401508977,2.1433709,0.12263216,9.752547
1,1896351403780155,0.035277467,-0.01863139,-0.066737026
0,1896351403780155,2.271985,0.21355942,9.638289
3,1896351403780155,1.9588671,0.14280613,-0.032556534
2,1896351405607671,23.3508,41.516598,-44.1396
1,1896351406048345,0.027947085,-0.01863139,-0.08155051
0,1896351406048345,2.3856442,0.23748764,9.715458
1,1896351408302372,0.01817324,-0.015118915,-0.094989546
0,1896351408302372,2.5226333,0.3272185,9.999007
1,1896351410590885,0.010995574,-0.0018325958,-0.1133155
0,1896351410590885,2.6554348,0.32243285,10.152746
1,1896351412861698,0.007330383,0.013897184,-0.12904528
0,1896351412861698,2.713461,0.22791636,9.894321
1,1896351415137028,0.0038179078,0.022296581,-0.14614952
0,1896351415137028,2.676372,0.05682954,9.682557
2,1896351415593999,22.4846,40.5528,-45.1156
1,1896351417399052,-0.0022907446,0.027030786,-0.15974127
0,1896351417399052,2.7625136,-0.032901313,9.577272
1,1896351419657475,-0.010842858,0.02443461,-0.17440203
0,1896351419657475,2.7768707,-0.01375873,9.601201
1,1896351421945745,-0.016798794,0.012217305,-0.18555032
0,1896351421945745,2.7158537,0.014955142,9.323633
3,1896351421945745,2.6834815,0.0986098,-0.19942951
1,1896351424215215,-0.02275473,-0.0050396384,-0.19410244
0,1896351424215215,2.8055844,-0.066400826,9.491131
2,1896351425604497,21.5086,40.4064,-45.75
1,1896351426489873,-0.02031127,-0.0062613687,-0.204029
0,1896351426489873,2.7846475,-0.119042926,9.993624
1,1896351428752996,-0.010231993,-1.5271631E-4,-0.21487185
0,1896351428752996,2.7266214,-0.16749759,10.323833
1,1896351431015263,0.004581489,-0.0062613687,-0.22342396
0,1896351431015263,2.722434,-0.276371,10.136595
1,1896351433297733,0.0070249503,0.0035124752,-0.23197608
0,1896351433297733,2.664408,-0.25782663,10.399805
1,1896351435568241,0.013133603,0.03634648,-0.23060162
0,1896351435568241,2.5274189,-0.148355,10.222138
2,1896351435596685,21.496399,39.833,-45.3108
1,1896351437841984,0.012980887,0.058337633,-0.22311853
0,1896351437841984,2.7062824,-0.032901313,9.294321
1,1896351440107793,-0.005497787,0.0571159,-0.2182316
0,1896351440107793,2.4987051,-0.051445685,8.886345
3,1896351440107793,2.6516914,-0.0655196,-0.20709705
1,1896351442368535,-0.03023783,0.043676864,-0.20616703
0,1896351442368535,2.4586253,0.25722843,9.337392
1,1896351444650823,-0.043982297,0.026572637,-0.18921551
0,1896351444650823,2.4735804,0.22851457,9.141181
2,1896351445592778,21.716,39.6256,-45.8476
1,1896351446921208,-0.051618114,0.031612277,-0.16462818
0,1896351446921208,2.193022,-0.07298109,10.570892
1,1896351449194951,-0.02733622,0.065973446,-0.13881913
0,1896351449194951,2.3611178,-0.5832505,11.575279
1,1896351451459844,0.026725354,0.07009678,-0.11530081
0,1896351451459844,2.4125633,-0.42951167,10.484153
1,1896351453721562,0.07086037,0.084910266,-0.09682214
0,1896351453721562,2.4095724,-0.7423732,10.027721
2,1896351455604497,21.2402,39.7842,-45.249798
1,1896351456004338,0.06078109,0.08750644,-0.07223482
0,1896351456004338,2.5663023,-0.16031912,8.714062
1,1896351458275761,0.0053450707,0.04230242,-0.053145275
0,1896351458275761,2.6051857,-0.12203395,8.388638
3,1896351458275761,2.539845,-0.22231665,-0.40096092
1,1896351460548222,-0.032986723,0.027641652,-0.033750303
0,1896351460548222,2.9210382,0.24825534,8.975478
1,1896351462812688,-0.047036625,0.0983493,-0.0076358155
0,1896351462812688,2.495714,-0.0065802624,10.912468
1,1896351465073857,-0.05375614,0.16676621,0.019547688
0,1896351465073857,1.4578272,-0.2542374,10.112068
2,1896351465593999,20.191,38.9912,-46.2014
1,1896351467357610,-0.03481932,0.007330383,0.038331795
0,1896351467357610,2.0512471,-0.3481557,6.565307
1,1896351469629094,0.0050396384,-0.17379116,0.062155537
0,1896351469629094,2.1804597,-0.79740816,11.655439
1,1896351471901250,0.075594574,0.001985312,0.09010262
0,1896351471901250,2.8480573,-0.6233303,13.636696
1,1896351474169010,0.18142697,0.02687807,0.10522154
0,1896351474169010,2.751746,-1.2095718,7.786245
2,1896351475604497,20.374,38.564198,-45.8476
1,1896351476446049,0.24220806,-0.10308351,0.124311075
0,1896351476446049,0.8392825,-1.1647065,7.8550386
3,1896351476446049,2.0650449,-0.7649682,-0.447834
1,1896351478710087,0.2779437,-0.2098322,0.15928312
0,1896351478710087,2.416751,-0.9068798,12.01496
1,1896351480981511,0.3022256,-0.129198,0.1769982
0,1896351480981511,2.4526432,-0.45762733,13.750954
1,1896351483249822,0.25702155,0.008399397,0.20326541
0,1896351483249822,1.861616,-0.27756742,10.176077
1,1896351485521917,0.1740966,0.034972034,0.22999077
0,1896351485521917,2.3958137,0.20279172,7.033104
2,1896351485587163,19.9714,38.5886,-46.1648
1,1896351487792852,0.08903361,-0.016340645,0.25518894
0,1896351487792852,1.4668003,0.3062813,3.667599
1,1896351490063603,0.01160644,-0.17867808,0.28115073
0,1896351490063603,1.8580267,0.51266223,5.8157554
1,1896351492334477,-0.034208454,-0.16661349,0.28848112
0,1896351492334477,2.4484558,0.62811595,15.90569
1,1896351494605961,-0.028710667,-0.006872234,0.30268374
0,1896351494605961,2.929413,0.35234314,13.109677
2,1896351495592290,19.4102,37.9176,-46.1648
3,1896351494605961,2.3566163,0.23843016,0.93603706
1,1896351496875797,-0.014049901,0.022449298,0.31642818
0,1896351496875797,2.4652054,0.25663024,6.1956162
1,1896351499145940,-0.0016798794,-0.02733622,0.31978795
0,1896351499145940,2.4670002,0.17108682,9.7298155
1,1896351501416630,0.061086524,0.0070249503,0.3239113
0,1896351501416630,3.3110683,0.5940182,14.122439
1,1896351503687261,0.1142318,0.03268129,0.30818152
0,1896351503687261,3.222534,0.30927232,9.853643
2,1896351505604253,19.361399,37.7712,-46.1404
1,1896351505955083,0.11591168,-0.0720821,0.28680122
0,1896351505955083,3.0311081,0.20518455,6.236294
1,1896351508217106,0.13362677,-0.15012014,0.27550024
0,1896351508217106,3.475575,-0.3469593,13.664812
1,1896351510499394,0.22937989,0.014660766,0.2667954
0,1896351510499394,4.1461635,-0.5922236,16.334604
1,1896351512770878,0.2857322,0.1330159,0.24923302
0,1896351512770878,3.979264,0.9212367,8.211569
3,1896351512770878,3.554329,0.18667339,1.2556486
1,1896351515043278,0.25473082,-0.0038179078,0.19822577
0,1896351515043278,3.5491543,1.6689938,3.3894334
2,1896351515593755,19.0686,37.4052,-46.1282
1,1896351517309392,0.23441954,-0.10415252,0.15363261
0,1896351517309392,4.322036,0.63948184,9.428319
1,1896351519574345,0.236863,0.034513887,0.11148291
0,1896351519574345,4.256233,0.2973082,9.40798
1,1896351521852422,0.12660182,-0.05024367,0.066737026
0,1896351521852422,4.2335014,0.52163535,5.1792645
1,1896351524122930,0.016798794,-0.30558532,0.033292156
0,1896351524122930,3.726223,0.587438,12.333206
2,1896351525604497,19.581,37.5028,-46.238
1,1896351526395452,0.039858956,-0.15699236,0.0096211275
0,1896351526395452,4.450052,0.12981063,13.64208
1,1896351528661443,0.13347405,0.013744468,-0.027183503
0,1896351528661443,5.905486,-0.2111666,7.1377897
1,1896351530924015,0.2049453,0.09666943,-0.06566802
0,1896351530924015,5.1457653,0.38584265,11.773286
3,1896351530924015,4.755958,0.24674654,0.36010647
1,1896351533205753,0.21639901,0.2582433,-0.15302174
0,1896351533205753,4.8789654,5.1762733,12.988241
1,1896351535476505,0.06780604,0.08124508,-0.29626966
0,1896351535476505,2.5477579,2.2145574,-0.051445685
2,1896351535599858,18.7392,36.783,-46.725998
1,1896351537749699,-0.14828753,-0.41691554,-0.34345898
0,1896351537749699,4.052245,1.5284154,2.370689
1,1896351540014775,-0.20815234,-0.4746423,-0.38545597
0,1896351540014775,4.7742796,0.3930211,9.477372
1,1896351542277410,-0.117744274,-0.05681047,-0.43951756
0,1896351542277410,7.0929246,-0.45164528,24.466013
1,1896351544558721,-0.023060163,0.5487097,-0.4961753
0,1896351544558721,7.0002027,-0.58983076,17.419151
2,1896351545604497,18.5196,36.8074,-46.4576
1,1896351546829778,-0.042913284,0.34972036,-0.54611355
0,1896351546829778,2.312663,0.9026923,-4.1671004
1,1896351549103886,-0.15225816,-0.37812558,-0.5832236
0,1896351549103886,1.4249259,0.024526432,0.8979067
3,1896351549103886,3.789155,0.3796452,-3.399531
1,1896351551367863,-0.25900686,-0.5006041,-0.6049093
0,1896351551367863,6.5443697,0.3595216,7.899306
1,1896351553629765,-0.257327,-0.19990565,-0.63270366
0,1896351553629765,6.6448684,-0.5371887,17.01596
2,1896351555604253,18.8002,36.8562,-46.0794
1,1896351555909001,-0.18463401,0.28145617,-0.66798115
0,1896351555909001,4.909474,1.055833,25.391438
1,1896351558171819,-0.15195273,0.48365256,-0.6779077
0,1896351558171819,2.14696,0.6041877,8.686544
1,1896351560456425,-0.1656972,0.07452556,-0.6421721
0,1896351560456425,1.5140585,0.9984053,-1.6893328
1,1896351562721013,-0.20616703,-0.35063666,-0.63087106
0,1896351562721013,3.4067812,0.6041877,-0.3272185
1,1896351564985539,-0.26618454,-0.46914452,-0.6389651
0,1896351564985539,2.7278178,1.4027922,9.510872
2,1896351565593022,18.3122,36.905,-46.420998
1,1896351567266240,-0.3726278,-0.19883664,-0.5693264
0,1896351567266240,-1.2197413,3.856632,22.847868
3,1896351567266240,1.9879594,1.6820983,1.6811466
1,1896351569536016,-0.4970916,0.091477074,-0.41157046
0,1896351569536016,0.8033902,2.6835506,9.828519
1,1896351571810857,-0.50762904,0.2012801,-0.37675115
0,1896351571810857,3.5060835,0.5449654,4.9896336
1,1896351574079228,-0.47769663,0.12705997,-0.3904956
0,1896351574079228,4.2981076,0.54257256,0.4426722
2,1896351575604497,16.8116,36.417,-47.2384
1,1896351576336003,-0.42394048,-0.06994407,-0.38896844
0,1896351576336003,2.4514468,0.07836494,11.3677025
1,1896351578618290,-0.33017266,-0.18509217,-0.35995236
0,1896351578618290,3.4773695,0.19621146,12.919448
1,1896351580887151,-0.2501493,-0.12751812,-0.3642284
0,1896351580887151,4.929813,-0.20039889,22.805395
1,1896351583160466,-0.1684461,0.16508633,-0.38347065
0,1896351583160466,5.9210396,-0.948156,10.904093
1,1896351585431035,-0.13683382,0.1695151,-0.45799622
0,1896351585431035,6.871588,-0.51445687,0.7465607
2,1896351585592534,16.1406,36.3194,-47.0554
3,1896351585431035,4.9255996,-0.03154441,-0.5745764
1,1896351587700811,-0.15515977,0.027488936,-0.5676465
0,1896351587700811,6.4217377,-1.5032908,6.84766
1,1896351589972112,-0.0777326,-6.1086525E-4,-0.65209866
0,1896351589972112,4.835296,-1.7784654,15.480366
1,1896351592241886,-0.009010263,-0.07620544,-0.71837753
0,1896351592241886,3.5198421,-1.1216356,13.50868
1,1896351594509831,0.0021380284,-0.11148291,-0.71853024
0,1896351594509831,2.7708886,-0.4354937,15.117255
2,1896351595593267,16.5676,36.7342,-46.2868
1,1896351596768376,-0.016340645,0.16630806,-0.68768156
0,1896351596768376,1.4219348,0.23030917,6.8279195
1,1896351599042119,0.07452556,0.028405234,-0.5890268
0,1896351599042119,-1.6606189,1.9465612,3.900301
1,1896351601324834,0.18845193,-0.05085453,-0.4813618
0,1896351601324834,0.71246296,0.31166515,9.46481
1,1896351603599308,0.23564127,0.03023783,-0.41355577
0,1896351603599308,1.1826526,-0.49950173,15.18246
3,1896351603599308,1.4939157,0.08776564,0.9678459
2,1896351605594731,15.433,36.148598,-47.092
1,1896351605868840,-0.030695979,0.4633413,-0.31306845
0,1896351605868840,1.8388842,-4.485346,13.899907
1,1896351608133672,-0.15225816,0.46929723,-0.24113905
0,1896351608133672,1.4494523,-0.5246264,6.044868
1,1896351610395146,-0.06352998,0.18692477,-0.26068676
0,1896351610395146,1.119841,-1.8376877,3.025126
1,1896351612678166,0.03924809,-0.21242839,-0.29779682
0,1896351612678166,2.7218359,-2.7463622,8.647063
1,1896351614949589,0.12217305,-0.22204952,-0.33078352
0,1896351614949589,3.0664022,-3.9864426,18.739988
2,1896351615593022,15.518399,36.1242,-46.738197
1,1896351617219792,0.18952094,0.18173242,-0.28939742
0,1896351617219792,2.592025,-3.4504502,15.64607
1,1896351619480901,0.2499966,0.3565926,-0.23441954
0,1896351619480901,0.81894356,-1.1593226,10.838888
1,1896351621761357,0.39080104,0.1516473,-0.1788308
0,1896351621761357,-3.0287154,-0.79740816,3.0263224
3,1896351621761357,0.5128689,-1.7684834,-0.33978844
1,1896351624031133,0.5012149,-0.26526824,-0.10354166
0,1896351624031133,1.5320047,-0.8045866,9.444471
2,1896351625604497,15.6282,35.9778,-46.8968
1,1896351626303960,0.50991976,-0.08460484,-0.03894266
0,1896351626303960,-1.0301101,-0.9912268,18.284157
1,1896351628569158,0.2835942,0.43310347,0.10995574
0,1896351628569158,0.2542374,-2.5262225,12.133406
1,1896351630831181,0.116980694,0.4381431,0.2527455
0,1896351630831181,-1.2813566,2.2085752,4.031906
1,1896351633113651,0.10064005,0.34590244,0.3268129
0,1896351633113651,0.3068795,-0.17706887,4.848457
1,1896351635384159,-0.015271631,0.3016147,0.34590244
0,1896351635384159,4.1497526,-0.70229346,-0.14237295
2,1896351635601079,15.420799,35.4654,-47.4824
1,1896351637658146,-0.12217305,-0.04505131,0.2948952
0,1896351637658146,0.52522457,-1.7910278,2.9892337
1,1896351639922002,-0.027794369,-0.54550266,0.27672195
0,1896351639922002,4.67737,-0.76570326,15.397216
3,1896351639922002,2.0682077,-0.84125495,-1.7849474
1,1896351642177678,0.17730364,-0.2098322,0.23976462
0,1896351642177678,3.9984066,-1.274178,28.219156
1,1896351644466924,0.34101552,0.31703907,0.2171626
0,1896351644466924,4.082155,-1.7461623,12.052648
2,1896351645604253,15.86,35.453197,-46.6162
1,1896351646737126,0.4118759,0.15409076,0.21044308
0,1896351646737126,0.82731843,-0.88235337,9.786046
1,1896351649012578,0.4184427,0.07849618,0.19425514
0,1896351649012578,2.2588246,-0.5844469,1.9716859
1,1896351651275700,0.36147952,-0.16798794,0.1731803
0,1896351651275700,1.8717855,0.13100705,3.495914
1,1896351653537480,0.27214047,-0.3268129,0.16600263
0,1896351653537480,0.63230336,0.08015956,8.1942215
2,1896351655604009,14.9816,35.1604,-47.6288
1,1896351655817448,0.3623958,-0.21884248,0.23044892
0,1896351655817448,-2.1014965,1.4584254,16.507484
1,1896351658080449,0.50778174,-0.049938235,0.44348818
0,1896351658080449,-5.307879,3.0664022,12.3810625
3,1896351658080449,-0.9742963,0.8964483,1.06952
1,1896351660364201,0.42088616,-0.18616119,0.5563455
0,1896351660364201,5.2307105,-2.3772693,-5.168497
1,1896351662630803,0.124005646,-0.3659083,0.45433104
0,1896351662630803,3.696911,1.9525433,8.310273
1,1896351664900334,-0.20341812,-0.03023783,0.40118575
0,1896351664900334,2.6039891,0.34277186,16.235899
2,1896351665592778,14.871799,34.8066,-47.360397
1,1896351667172979,-0.38988474,0.047036625,0.41218132
0,1896351667172979,3.6981075,-0.2644069,2.3288147
1,1896351669443730,-0.40698898,0.06505715,0.38774672
0,1896351669443730,2.4951158,1.2059826,10.754541
1,1896351671715641,-0.39706242,0.08323039,0.37064248
0,1896351671715641,0.4001996,1.8687944,7.361519
1,1896351673986149,-0.25381452,-0.111941054,0.42760566
0,1896351673986149,2.3246272,1.0803595,22.248465
2,1896351675604497,14.798599,34.6602,-47.6776
1,1896351676257146,-0.23365596,0.13912456,0.420428
0,1896351676257146,2.3838496,1.6019948,5.980262
3,1896351676257146,2.1169095,1.1185094,0.56814766
1,1896351678514287,-0.33276883,-0.0355829,0.3996586
0,1896351678514287,0.46899325,2.5034907,9.02154
1,1896351680797002,-0.4034765,-0.029626964,0.4373795
0,1896351680797002,-1.3770695,2.8438697,5.3126645
1,1896351683063420,-0.5122105,-0.017715093,0.4616614
0,1896351683063420,4.0923247,1.2526426,9.65504
1,1896351685329533,-0.64553183,0.19807306,0.39019018
0,1896351685329533,5.3312087,0.7369894,5.323432
2,1896351685586186,16.4212,35.5752,-47.579998
1,1896351687609746,-0.70570207,0.258396,0.34009922
0,1896351687609746,2.271985,0.036490545,7.1186476
1,1896351689879521,-0.6226244,-0.11789699,0.3042109
0,1896351689879521,-0.2835495,-0.72083783,9.087342
1,1896351692153263,-0.43508878,-0.43890667,0.27366763
0,1896351692153263,3.5796626,0.124426775,13.532608
1,1896351694418523,-0.40378192,-0.28695396,0.1779145
0,1896351694418523,6.6681986,-0.10468599,17.036898
3,1896351694418523,3.5462236,0.3396267,1.9054279
2,1896351695592534,16.1772,36.148598,-46.579597
1,1896351696679264,-0.3304781,0.054061573,0.11133019
0,1896351696679264,3.848257,-0.4671986,11.845669
1,1896351698961858,-0.12690726,0.23472497,0.046578474
0,1896351698961858,3.437888,0.07178468,13.37887
1,1896351701232548,0.14309518,0.08933904,-0.039095376
0,1896351701232548,2.0057836,-1.9184456,14.121841
1,1896351703506352,0.29077184,0.0018325958,-0.09896017
0,1896351703506352,4.2801614,-0.93320084,12.257833
2,1896351705604009,13.6152,35.4044,-47.3726
1,1896351705771977,0.30925053,0.15867224,-0.15699236
0,1896351705771977,3.845266,-0.1680958,4.9160542
1,1896351708035954,0.28084528,0.2753475,-0.1919644
0,1896351708035954,2.2917259,-0.6197411,7.2263246
1,1896351710315312,0.25381452,0.29336804,-0.22128594
0,1896351710315312,0.17826529,-0.81954175,15.478572
1,1896351712586735,0.27198774,0.14569137,-0.25870144
0,1896351712586735,0.2548356,1.0743774,10.9070835
3,1896351712586735,1.7951807,-0.07859108,1.3151903
1,1896351714858464,0.22571471,0.0016798794,-0.2779437
0,1896351714858464,-1.1377872,1.797608,9.050852
2,1896351715593022,14.0666,34.892,-46.0672
1,1896351717125065,0.19349156,-0.009162978,-0.24495697
0,1896351717125065,0.42891344,1.5314065,7.346564
1,1896351719389286,0.12889257,0.07467828,-0.22388211
0,1896351719389286,1.7551354,0.50009996,1.346561
1,1896351721668340,0.12690726,-0.110413894,-0.21746802
0,1896351721668340,-1.346561,0.60717875,6.851249
1,1896351723938848,0.1647809,-0.0954477,-0.18677205
0,1896351723938848,-0.8321041,1.2263216,30.880573
2,1896351725604497,13.4444,35.258,-46.6284
1,1896351726211675,0.12736541,0.2883284,-0.1470658
0,1896351726211675,1.3926228,1.4614165,10.482358
1,1896351728479497,0.099571034,0.344528,-0.09789115
0,1896351728479497,0.11006984,1.1126626,3.6406796
1,1896351730747501,0.06719518,0.42012256,-0.07666359
0,1896351730747501,2.1972094,0.17048861,2.8606195
3,1896351730747501,0.9092575,0.81153697,-1.6119576
1,1896351733021671,0.050549097,0.28710666,-0.095753126
0,1896351733021671,-0.20578274,-0.41934216,0.78843504
1,1896351735292301,0.08903361,-0.41584653,-0.13469578
0,1896351735292301,-0.23688944,-1.8723837,-0.52941203
2,1896351735589604,13.3345995,35.0262,-47.153
1,1896351737563481,0.16310102,-0.93019503,-0.21792617
0,1896351737563481,4.5338006,-2.5298119,29.059635
1,1896351739830388,0.40332377,-0.026725354,-0.26160303
0,1896351739830388,4.819743,-1.9160527,32.607594
1,1896351742092168,0.58123827,0.5589417,-0.2509129
0,1896351742092168,2.3084757,-2.1044874,8.225926
1,1896351744374944,0.5476407,0.3052799,-0.2657264
0,1896351744374944,0.57427746,0.35832518,-0.75194454
2,1896351745604497,12.8954,34.586998,-46.4088
1,1896351746645696,0.38423425,-0.09758572,-0.30115658
0,1896351746645696,-1.2418749,0.6628119,-6.0897336
1,1896351748920109,0.38744128,-0.56245416,-0.22159137
0,1896351748920109,-4.587041,3.682554,7.5583286
3,1896351748920109,-0.52072215,0.6733647,-3.573883
1,1896351751183659,0.54473907,-0.5703954,-0.015577064
0,1896351751183659,-8.215756,4.3926244,9.926026
1,1896351753445439,0.50518554,-0.52473325,0.10567969
0,1896351753445439,5.2959146,-1.230509,11.590235
2,1896351755604253,12.9808,34.3796,-46.4454
1,1896351755724675,-0.020005837,0.06811147,0.012980887
0,1896351755724675,6.0729837,0.3595216,10.656436
1,1896351757986943,-0.3659083,0.046731193,-0.055283304
0,1896351757986943,1.0426725,1.1228321,7.428518
1,1896351760273137,-0.5002986,0.16890424,-0.09911288
0,1896351760273137,2.2002003,0.084346995,3.3822548
1,1896351762536992,-0.53801954,-0.011453724,-0.076816306
0,1896351762536992,-2.8259234,2.0225334,6.366703
1,1896351764801945,-0.3556763,-0.27550024,0.028710667
0,1896351764801945,-1.1096715,1.6935202,15.755541
2,1896351765593511,12.7856,34.5504,-46.6406
1,1896351767081974,-0.30726522,-0.11178834,0.063988134
0,1896351767081974,1.1252248,1.969293,14.420345
3,1896351767081974,0.27041486,1.4084946,1.0186739
1,1896351769351933,-0.41905355,0.07422013,0.09025534
0,1896351769351933,-1.1312069,2.1625135,9.847063
1,1896351771625370,-0.64828074,0.12293663,0.06307184
0,1896351771625370,3.739982,0.4851448,3.4863427
1,1896351773890141,-0.8248208,0.020616703,-0.020005837
0,1896351773890141,2.7918258,0.7477571,5.197809
2,1896351775604497,12.675799,34.6846,-46.482
1,1896351776153385,-0.8049677,0.035277467,-0.036957346
0,1896351776153385,-0.2536392,0.08673982,5.953343
1,1896351778434209,-0.67363167,-0.15790866,-0.025350908
0,1896351778434209,-0.85064846,-1.1653047,13.50868
1,1896351780704961,-0.4775439,-0.4277584,-0.07513642
0,1896351780704961,3.1142588,-0.6023931,12.354741
1,1896351782976384,-0.3736968,-0.26206118,-0.15363261
0,1896351782976384,2.9676983,-1.6097715,18.887745
1,1896351785236699,-0.23365596,0.018478673,-0.19700404
0,1896351785236699,3.699902,-1.055833,11.095519
2,1896351785592534,11.285,34.355198,-45.994
3,1896351785236699,2.2730522,-0.52485925,2.2479954
1,1896351787505010,-0.074830994,0.19792034,-0.24709499
0,1896351787505010,0.9242278,-2.8642087,16.287943
1,1896351789787541,0.1217149,0.13775012,-0.27137688
0,1896351789787541,1.6845472,-2.8133612,11.252847
1,1896351792059879,0.25809056,0.0041233404,-0.31322116
0,1896351792059879,1.4416757,-0.5282156,5.5274205
1,1896351794331608,0.30848694,0.11255192,-0.3297145
0,1896351794331608,0.4336991,-0.70169526,9.334999
2,1896351795592290,12.4684,35.4044,-45.933
1,1896351796596013,0.42317688,0.3921755,-0.30482176
0,1896351796596013,0.4564309,-3.1543384,19.417158
1,1896351798858037,0.46746463,0.42653665,-0.30695978
0,1896351798858037,0.36191443,-4.1922255,13.262817
1,1896351801140996,0.39920044,0.23732115,-0.3129157
0,1896351801140996,-2.774478,-1.6947167,9.216555
1,1896351803412297,0.40194935,0.037873644,-0.27107146
0,1896351803412297,-2.8935208,1.0253245,1.9082761
3,1896351803412297,-0.88263273,-1.2565302,-0.71513844
2,1896351805591802,11.3948,34.3918,-45.6524
1,1896351805683599,0.31642818,-0.021838432,-0.20066923
0,1896351805683599,-0.66341007,-0.36430725,4.9920263
1,1896351807947881,0.22831088,0.008552114,-0.15302174
0,1896351807947881,-1.5379868,0.47318068,7.103692
1,1896351810223027,0.12232576,-0.05513059,-0.13897185
0,1896351810223027,-1.9728823,-0.6113662,20.882164
1,1896351812493839,-0.024281893,0.23625213,0.011453724
0,1896351812493839,-7.138388,1.867598,11.286346
1,1896351814765690,-0.015577064,0.3193298,0.24190263
0,1896351814765690,-4.860421,2.271985,6.1387863
2,1896351815586186,12.261,34.709,-47.0188
1,1896351817035527,-7.6358154E-4,0.3578143,0.35353827
0,1896351817035527,-0.45104706,-0.23569304,5.343173
1,1896351819308049,-0.026419923,0.33444872,0.33750305
0,1896351819308049,0.9954142,-0.23569304,-3.7363925
1,1896351821577520,-0.08536842,-0.30573806,0.28145617
0,1896351821577520,-5.959923,-3.583252,6.8632135
3,1896351821577520,-2.7749095,-0.8072583,-4.188298
1,1896351823847051,0.10323623,-0.626595,0.27672195
0,1896351823847051,3.839284,-2.2492533,31.696526
2,1896351825601811,12.5538,34.5504,-44.6398
1,1896351826117009,0.37491855,0.19028452,0.1947133
0,1896351826117009,2.2235305,-2.0835502,27.39423
1,1896351828386601,0.50915617,0.5309946,0.21517728
0,1896351828386601,-1.9016958,-0.631107,4.2915273
1,1896351830654424,0.45463645,0.24190263,0.2134974
0,1896351830654424,-2.3114667,-1.1377872,-4.362714
1,1896351832930607,0.28038713,-0.23533584,0.17516561
0,1896351832930607,-1.3621143,0.5132605,-4.423731
1,1896351835200383,0.13545936,-0.46731192,0.1956296
0,1896351835200383,-2.4197419,0.25962126,2.5489542
2,1896351835592778,11.7852,34.3064,-45.4328
1,1896351837472294,0.07223482,-0.5038111,0.24419338
0,1896351837472294,-2.449054,0.10348958,5.503492
1,1896351839740361,0.20570888,-0.52778757,0.22479841
0,1896351839740361,0.56111693,-1.1581261,30.345778
3,1896351839740361,-1.0791105,-0.5512619,2.0087633
1,1896351842004277,0.35353827,-0.06307184,0.20433442
0,1896351842004277,0.10229317,-0.0951147,17.78944
1,1896351844282842,0.29260445,0.047647487,0.2182316
0,1896351844282842,-3.8638103,0.41814575,3.3338
2,1896351845604497,11.4436,33.977,-44.7984
1,1896351846553105,0.122783914,-0.15027285,0.2510656
0,1896351846553105,-1.0301101,0.44865423,4.898108
1,1896351848826055,-0.1151481,-0.1525636,0.24663684
0,1896351848826055,-2.5663023,0.99302137,-1.66361
1,1896351851092045,-0.376293,-0.28023443,0.26374108
0,1896351851092045,-0.60658056,1.9070797,9.460623
1,1896351853355106,-0.7093673,0.07651087,0.27916542
0,1896351853355106,-1.7784654,2.8965118,14.861821
2,1896351855604497,11.5778,33.977,-45.628
1,1896351855635014,-0.87949324,0.24419338,0.3408628
0,1896351855635014,-5.9377894,3.114857,7.7706914
1,1896351857903203,-0.71868294,-0.06688975,0.54168475
0,1896351857903203,-9.625129,3.9164524,9.204591
3,1896351857903203,-4.693383,2.4348402,-0.89698124
1,1896351860179692,-0.6389651,-0.01695151,0.70005155
0,1896351860179692,-0.74596244,1.0929217,10.155738
1,1896351862444890,-0.6411031,0.23411411,0.70738196
0,1896351862444890,0.011964113,-1.1276177,7.865806
1,1896351864707280,-0.52503866,-0.087201014,0.6730208
0,1896351864707280,-2.4568307,-2.4849463,7.049854
2,1896351865605718,10.9922,33.916,-45.4328
1,1896351866989141,-0.3857614,-0.5025894,0.57344973
0,1896351866989141,0.785444,-1.5702899,12.221342
1,1896351869259648,-0.312763,-0.3031419,0.4644103
0,1896351869259648,1.6336997,-0.15074782,21.608385
1,1896351871533390,-0.20677789,0.13698652,0.44974953
0,1896351871533390,2.7242286,0.123828575,9.630513
1,1896351873801152,0.009010263,0.27275133,0.39843684
0,1896351873801152,-0.2865405,-0.721436,16.32922
2,1896351875604497,12.0658,35.0384,-44.652
1,1896351876072636,0.19211712,0.3145956,0.3184135
0,1896351876072636,-0.80817586,-2.696711,14.005789
3,1896351876072636,-0.1345213,-0.91521585,3.6119528
1,1896351878342168,0.29718593,0.032070424,0.257327
0,1896351878342168,0.65982085,-1.4608182,4.988437
1,1896351880612920,0.3107777,-0.1704314,0.20005837
0,1896351880612920,0.035294134,-0.17706887,1.2311072
1,1896351882882024,0.22800545,0.17027868,0.21135938
0,1896351882882024,0.76271224,0.054436713,16.671991
1,1896351885149541,0.13439035,0.5682574,0.19960022
0,1896351885149541,0.43848476,-0.40259242,16.980068
2,1896351885593999,11.0654,34.2454,-44.627598
1,1896351887424688,0.16310102,0.2585487,0.13683382
0,1896351887424688,-2.1080768,-1.1790633,4.9639106
1,1896351889695439,0.21884248,-0.013286319,0.08307768
0,1896351889695439,-1.5475581,-0.9840483,8.937193
1,1896351891967350,0.21013765,0.08277224,0.05421429
0,1896351891967350,-0.62093747,0.5665008,6.073582
1,1896351894237675,0.15607607,-0.006414085,0.056046885
0,1896351894237675,-0.1585245,0.253041,9.666406
3,1896351894237675,-0.49388373,-0.18025216,-0.7330723
2,1896351895604497,10.906799,34.2454,-44.4446
1,1896351896507206,0.19318613,0.016798794,0.039095376
0,1896351896507206,-1.6390835,0.5198407,11.280364
1,1896351898777959,0.21013765,0.17394388,0.02031127
0,1896351898777959,-0.72083783,1.797608,23.622543
1,1896351901047124,0.18280143,0.28817567,-0.007330383
0,1896351901047124,-1.7515461,0.92542416,6.8075805
1,1896351903315129,0.069485925,0.24022275,-0.0016798794
0,1896351903315129,-2.510071,-0.0951147,1.3549358
1,1896351905587956,-0.061391957,0.22403483,0.022296581
0,1896351905587956,-0.4103691,0.8003992,1.7982062
2,1896351905606450,11.6144,34.16,-44.3592
1,1896351907848577,-0.19501872,0.26007587,0.05513059
0,1896351907848577,-1.588236,0.49052864,1.4470595
1,1896351910132634,-0.13744467,-0.0804815,0.09514226
0,1896351910132634,-5.918647,-0.8889336,11.534601
1,1896351912402714,0.22770002,-0.5174029,0.111177474
0,1896351912402714,-2.3365912,0.016749758,23.97728
3,1896351912402714,-2.4622505,0.12376175,2.019432
1,1896351914675480,0.528093,-0.3115413,0.084910266
0,1896351914675480,2.0572293,-1.1359925,19.311872
2,1896351915592534,12.248799,34.2942,-43.9078
1,1896351916942021,0.602924,0.204029,0.0729984
0,1896351916942021,-0.5910272,0.09032906,13.476975
1,1896351919209538,0.516792,0.41080686,0.095753126
0,1896351919209538,-3.676572,0.44506502,1.5577276
1,1896351921484258,0.3013093,-0.094225965,0.123242065
0,1896351921484258,-3.5072799,0.8979067,0.6454639
1,1896351923755010,0.10140363,-0.4361578,0.13194689
0,1896351923755010,-1.3339987,1.0241281,4.5684967
2,1896351925604497,12.0658,34.038,-44.225
1,1896351926026494,0.044135015,-0.29871312,0.13622294
0,1896351926026494,0.17108682,1.14018,7.7413793
1,1896351928294560,0.08979719,0.027947085,0.14172074
0,1896351928294560,-0.9302098,1.035494,13.622937
1,1896351930559940,0.1142318,0.06963864,0.1518
0,1896351930559940,-2.8576283,1.326222,11.422139
3,1896351930559940,-1.6685168,0.9064883,-0.20428753
1,1896351932837589,0.14538592,-0.25579983,0.11224649
0,1896351932837589,-0.68135625,0.1794617,10.899905
1,1896351935108280,0.19486602,-0.24236079,0.09162979
0,1896351935108280,0.050249275,0.57188463,9.788439
2,1896351935594243,12.2366,33.8672,-44.249397
1,1896351937380498,0.10186178,-0.02611449,0.061850104
0,1896351937380498,-1.3980067,0.8470592,5.2426744
1,1896351939646367,-0.0842994,-0.052381694,0.077121735
0,1896351939646367,-1.2580265,-0.033499517,6.140581
1,1896351941908269,-0.123547494,-0.15836681,0.088728175
0,1896351941908269,-2.769094,1.8664017,12.990634
1,1896351944190557,-0.12385293,-0.29642236,0.042760566
0,1896351944190557,-1.5535401,-1.3974084,11.986845
2,1896351945604253,11.6388,33.732998,-43.932198
1,1896351946461614,-0.20143281,-0.039553523,0.058490347
0,1896351946461614,1.7605193,1.1742777,8.720642
1,1896351948735966,-0.4071417,0.32360587,0.0364992
0,1896351948735966,-1.5080764,1.3710874,7.7443705
3,1896351948735966,-0.8679205,0.7310942,-0.66046524
1,1896351950999638,-0.634689,0.1947133,0.030390546
0,1896351950999638,-3.7818563,0.90089774,1.683949
1,1896351953261356,-0.7689266,-0.2857322,0.04841107
0,1896351953261356,-2.8444679,0.12203395,5.621937
1,1896351955543522,-0.75854194,-0.44028112,0.062308256
0,1896351955543522,-0.87637126,0.21714866,10.942378
2,1896351955592290,12.2,34.513798,-43.1026
1,1896351957814336,-0.6647741,-0.1085813,0.059406646
0,1896351957814336,0.6999006,0.43609193,15.524035
1,1896351960088078,-0.47342056,0.2490803,0.03726278
0,1896351960088078,-0.86081797,-0.18604197,17.172092
1,1896351962352910,-0.12996158,0.0580322,0.039553523
0,1896351962352910,-3.129812,-1.7288144,16.509878
1,1896351964614934,0.13362677,-0.18325958,0.018325957
0,1896351964614934,-1.791626,-1.0396814,4.199404
2,1896351965606938,11.7973995,34.5382,-43.1026
1,1896351966898137,0.08170322,-0.040011674,-0.0154243475
0,1896351966898137,2.178665,-0.41694933,18.43909
3,1896351966898137,-0.5484782,-0.4108273,3.0949993
1,1896351969167913,-0.010842858,0.3846924,-0.029321533
0,1896351969167913,-1.0773684,-0.6041877,6.4360948
1,1896351971441533,0.06856962,0.27168232,-0.046883907
0,1896351971441533,-2.5208387,-1.5373886,6.0574307
1,1896351973705754,0.093462385,-0.020922136,-0.089949906
0,1896351973705754,-1.2867404,-1.16351,11.773286
2,1896351975604253,11.9804,34.1844,-43.4076
1,1896351975969975,-0.032223143,0.06719518,-0.12889257
0,1896351975969975,-0.698106,-0.19621146,14.413765
1,1896351978257633,-0.049632803,0.11224649,-0.12996158
0,1896351978257633,-2.952743,-0.9320044,4.342973
1,1896351980520879,0.0076358155,-0.17363845,-0.09941832
0,1896351980520879,-2.3252254,-1.1611172,1.9645073
1,1896351982793034,0.0729984,-0.21090123,-0.07742717
0,1896351982793034,-1.8669999,-0.5736792,7.7066836
1,1896351985052495,0.057268616,0.012064588,-0.06291912
0,1896351985052495,-0.010767702,0.036490545,18.680168
2,1896351985593755,12.1268,34.5504,-43.127
3,1896351985052495,-1.2878648,-0.5021403,0.79491425
1,1896351987321172,0.03970624,0.20662516,-0.09254608
0,1896351987321172,-0.69571316,-0.5587241,15.135799
1,1896351989603459,0.013591751,0.2857322,-0.0983493
0,1896351989603459,-3.8057845,-1.3692927,10.195219
1,1896351991875370,0.14370605,-0.035124753,-0.06291912
0,1896351991875370,-2.3042881,-0.6233303,5.103891
1,1896351994147465,0.25961772,-0.056505036,-0.054061573
0,1896351994147465,-1.9148563,-0.45104706,11.591431
2,1896351995586186,12.0292,34.3308,-43.432
1,1896351996411931,0.23411411,0.19440787,-0.055436023
0,1896351996411931,-1.0259227,0.22671995,14.179269
1,1896351998673955,0.24297164,0.13347405,-0.054367006
0,1896351998673955,-2.6135604,-0.28175488,8.983254
1,1896352000956975,0.24113905,-0.052839845,-0.04810564
0,1896352000956975,-3.0562327,-0.008973085,3.7573297
1,1896352003228521,0.1777618,-0.004276057,-0.023518313
0,1896352003228521,-1.2699906,1.6013966,16.664814
3,1896352003228521,-1.948693,0.28703287,1.1423731
1,1896352005497930,0.062155537,0.22922719,-0.004276057
0,1896352005497930,-2.6709883,2.1798615,13.284353
2,1896352005587895,12.1634,33.9404,-42.8708
1,1896352007756475,-0.030390546,0.20708331,0.01740966
0,1896352007756475,-3.5246277,-0.22612174,1.9914266
1,1896352010038884,-0.08811731,0.004886922,0.0627664
0,1896352010038884,-2.580061,-0.07298109,2.3168504
1,1896352012309696,-0.1253801,0.01817324,0.08109236
0,1896352012309696,-1.1694921,-0.17407785,8.032107
1,1896352014583439,-0.13729197,0.2144137,0.09666943
0,1896352014583439,-1.0378869,0.6029913,17.184055
2,1896352015592290,14.2252,34.7334,-42.8586
1,1896352016846806,0.05375614,0.26145032,0.087659165
0,1896352016846806,-3.7214375,0.25962126,15.04906
1,1896352019105412,0.22678372,-0.14004086,0.06047566
0,1896352019105412,-1.6444674,-0.7369894,5.4795637
1,1896352021393438,0.26053402,-0.23732115,0.052687127
0,1896352021393438,-2.0374885,-0.21415763,8.746365
3,1896352021393438,-2.0753882,-0.029957028,-0.30675125
1,1896352023663030,0.3052799,-0.0421497,0.07086037
0,1896352023663030,-2.1678972,-0.65324056,13.337593
2,1896352025604497,13.3102,34.526,-41.748398
1,1896352025935002,0.36071593,-0.03573562,0.07971791
0,1896352025935002,-2.2929223,-0.8919246,13.743176
1,1896352028189763,0.35796702,0.012980887,0.08475755
0,1896352028189763,-2.3928227,0.11964113,14.651852
1,1896352030463993,0.28588495,0.079870634,0.12293663
0,1896352030463993,-2.6997023,0.5557331,4.9531426
1,1896352032742985,0.17852537,0.015118915,0.1516473
0,1896352032742985,-2.6482565,0.84107715,1.2568301
1,1896352035006292,0.046883907,-0.116980694,0.17012598
0,1896352035006292,-2.678765,0.39960137,4.502694
2,1896352035593511,12.322,33.8794,-42.4926
1,1896352037278508,-0.002443461,-0.160963,0.1881465
0,1896352037278508,-2.1164517,1.1557333,11.59203
1,1896352039554265,0.04046982,-0.086437434,0.19730948
0,1896352039554265,-1.7802601,0.18664017,15.000007
3,1896352039554265,-2.1759615,0.41027176,0.2846079
1,1896352041813725,0.09865474,0.124769226,0.22052236
0,1896352041813725,-1.1204392,-0.52522457,7.791629
1,1896352044101811,-0.004428773,-0.026725354,0.21945333
0,1896352044101811,-4.5218368,0.47916272,-0.011964113
2,1896352045604497,11.7364,33.3914,-42.529198
1,1896352046369023,-0.043676864,-0.46303585,0.23182335
0,1896352046369023,-2.3575284,-1.7312071,12.154343
1,1896352048644536,0.08582657,-0.17837265,0.2593123
0,1896352048644536,0.33918262,-0.73519474,23.324636
1,1896352050911015,0.23472497,0.26450464,0.26313022
0,1896352050911015,-2.2169502,-1.4733806,11.279766
1,1896352053178593,0.23900102,0.068264194,0.25977045
0,1896352053178593,-4.339982,-0.36011982,-1.3842479
1,1896352055452031,0.076358154,-0.34529158,0.27076602
0,1896352055452031,-2.7038896,0.5449654,2.14696
2,1896352055593511,11.3094,33.1596,-43.236797
1,1896352057723271,-0.022602014,-0.32604933,0.3036
0,1896352057723271,-2.0255244,0.14596218,13.125829
3,1896352057723271,-2.409421,-0.19849761,-1.3668175
1,1896352059993962,-0.047036625,-0.13103059,0.33017266
0,1896352059993962,-2.0261226,0.3906283,18.381065
1,1896352062264897,-0.028710667,-0.08460484,0.33292156
0,1896352062264897,-3.5060835,-1.466202,15.244673
1,1896352064538456,-0.014966198,0.14950927,0.35979962
0,1896352064538456,-1.4123635,-0.11246266,8.165507
2,1896352065595464,11.712,33.3792,-43.188
1,1896352066804997,-0.053297993,0.11530081,0.3840815
0,1896352066804997,-2.7786653,-0.12921242,-1.8317057
1,1896352069075565,-0.19425514,-0.10094548,0.37888917
0,1896352069075565,-3.6107693,1.0833504,4.238287
1,1896352071345219,-0.4269948,-0.17027868,0.37186423
0,1896352071345219,-1.8011973,2.5136602,13.303495
1,1896352073614201,-0.6407976,-0.040775254,0.3743077
0,1896352073614201,-2.143969,1.8113668,8.601001
2,1896352075604497,12.017,33.184,-42.1022
1,1896352075874272,-0.6768387,6.1086525E-4,0.38545597
0,1896352075874272,-2.5603201,0.5605187,8.435896
3,1896352075874272,-2.4172714,0.9300569,-1.3158579
1,1896352078146917,-0.5665775,-0.14874569,0.38866302
0,1896352078146917,-3.3385859,0.010169496,6.7495546
1,1896352080429082,-0.4549419,-0.3213151,0.38805214
0,1896352080429082,-2.4544377,-0.34396824,16.091732
1,1896352082698979,-0.24984388,-0.05497787,0.37033707
0,1896352082698979,-1.0408778,0.56470615,20.6034
1,1896352084960942,-0.066737026,0.20387627,0.33673948
0,1896352084960942,0.9834501,0.45164528,8.235497
2,1896352085593511,11.4436,33.342598,-43.3588
1,1896352087240544,-0.058184914,0.29886582,0.31520647
0,1896352087240544,-4.0534415,-1.4201403,8.920443
1,1896352089511417,0.015118915,0.122478485,0.31810808
0,1896352089511417,-2.9395826,-0.58923256,11.016556
1,1896352091785343,0.05085453,-0.063988134,0.26343563
0,1896352091785343,-1.0289137,-0.8632108,11.454442
1,1896352094051640,0.014813482,0.061086524,0.23701571
0,1896352094051640,-2.605784,-0.32063824,9.409775
3,1896352094051640,-2.1084738,-0.33652037,0.8303623
2,1896352095599370,12.248799,33.916,-42.517
1,1896352096312383,-0.022296581,0.15699236,0.21426098
0,1896352096312383,-1.0295119,0.13100705,11.19482
1,1896352098582158,-0.008399397,0.14110987,0.18967366
0,1896352098582158,-3.2620156,-1.3974084,7.1659055
1,1896352100861455,0.0711658,-0.038789943,0.19028452
0,1896352100861455,-3.101098,-0.8021938,3.2943187
1,1896352103125432,0.11728613,-0.15317446,0.17516561
0,1896352103125432,-2.1062822,-0.25962126,10.671391
1,1896352105405828,-0.0018325958,0.07162395,0.17348573
0,1896352105405828,-0.33260235,1.3334004,19.205992
2,1896352105590337,12.5538,33.916,-43.1026
1,1896352107664434,-0.065515295,0.3575089,0.1563815
0,1896352107664434,-2.464009,1.4404793,11.596217
1,1896352109950383,-0.014202617,0.2125811,0.13133603
0,1896352109950383,-3.621537,0.18484555,7.443473
1,1896352112218876,0.06505715,0.09605856,0.12965615
0,1896352112218876,-2.43709,0.078963146,6.001797
3,1896352112218876,-2.3986583,0.31159607,-0.6035795
1,1896352114491459,0.09896017,-0.035430185,0.1217149
0,1896352114491459,-2.562115,0.034097724,3.8937206
2,1896352115592534,12.8344,34.1478,-42.211998
1,1896352116757939,0.030390546,-0.13942999,0.10399981
0,1896352116757939,-3.4121652,1.0217353,10.877173
1,1896352119024479,-0.06719518,-0.13973543,0.114689946
0,1896352119024479,-2.1732812,1.4159528,8.92463
1,1896352121300420,-0.069485925,-0.16905695,0.109650314
0,1896352121300420,-2.786442,0.6801598,7.6983085
1,1896352123571843,-0.07315111,-0.15806139,0.10476339
0,1896352123571843,-1.9585253,0.15314065,11.560325
2,1896352125604497,12.4684,33.6354,-42.7366
1,1896352125839788,-0.09728029,0.07925977,0.09117164
0,1896352125839788,-1.7485552,0.34576288,16.576279
1,1896352128097111,-0.07651087,0.14996742,0.087964594
0,1896352128097111,-1.6480566,-0.21954148,6.209973
1,1896352130368046,-0.016646078,-0.018020526,0.07009678
0,1896352130368046,-3.3152559,-0.92243314,7.1485577
3,1896352130368046,-2.3890486,-0.004328344,-0.68439007
1,1896352132653507,0.004581489,-0.027794369,0.05421429
0,1896352132653507,-1.4255241,0.12023934,11.514262
1,1896352134927067,-0.048563786,0.063224554,0.034972034
0,1896352134927067,-1.3651053,0.031106694,10.652248
2,1896352135593022,12.566,33.672,-42.7122
1,1896352137198308,-0.05955936,0.075289145,0.0154243475
0,1896352137198308,-3.0041888,0.27517462,11.460424
1,1896352139462224,0.047036625,-0.0571159,0.006414085
0,1896352139462224,-2.3802602,-0.116650105,9.991231
1,1896352141724004,0.0852157,-0.009468411,-0.007788532
0,1896352141724004,-1.933999,-0.4989035,11.706286
1,1896352144006719,0.105832405,0.10140363,-0.0096211275
0,1896352144006719,-1.1563315,0.023330022,13.416556
2,1896352145604253,12.5904,33.3792,-43.5052
1,1896352146277532,0.15867224,0.20998493,-0.02977968
0,1896352146277532,-2.6542385,-0.54436713,9.653245
1,1896352148551945,0.17608191,0.18448131,-0.03481932
0,1896352148551945,-2.213361,-0.5024927,7.408777
3,1896352148551945,-2.0866065,-0.2516449,0.14738941
1,1896352150815434,0.16417004,0.06856962,-0.040317107
0,1896352150815434,-2.4041886,-0.31286156,7.5092754
1,1896352153077030,0.16340645,-0.03863723,-0.050701816
0,1896352153077030,-2.2857437,-0.3260221,10.2107725
1,1896352155359440,0.17562376,-0.016646078,-0.05177083
0,1896352155359440,-2.155335,0.28414768,9.447462
2,1896352155592534,12.5538,33.4158,-42.7732
1,1896352157630254,0.12782355,-0.071776666,-0.059406646
0,1896352157630254,-2.5776682,0.26979074,5.3312087
1,1896352159904057,0.052839845,-0.1572978,-0.05024367
0,1896352159904057,-2.4293132,0.99601245,10.0576315
1,1896352162168828,0.030085113,-3.0543262E-4,-0.055741455
0,1896352162168828,-0.9164511,2.3048863,17.234304
1,1896352164430852,-0.002443461,0.23335053,-0.0888809
0,1896352164430852,-1.5326029,1.5702899,11.701501
2,1896352165592534,12.6514,33.2816,-42.9318
1,1896352166714055,-0.01450805,0.21731532,-0.11102476
0,1896352166714055,-2.894119,1.0612168,7.0528445
3,1896352166714055,-2.0735016,1.0717211,0.3175869
1,1896352168983769,-0.015118915,0.07223482,-0.12522738
0,1896352168983769,-2.0153549,0.41874397,4.9896336
1,1896352171257206,-0.05177083,-0.01572978,-0.13316862
0,1896352171257206,-1.6043876,0.047856454,8.577073
1,1896352173521672,-0.04795292,-0.005955936,-0.14523321
0,1896352173521672,-2.1068804,0.4426722,11.7667055
2,1896352175604497,12.4928,33.342598,-43.5296
1,1896352175781438,0.00290161,-0.042455133,-0.16493362
0,1896352175781438,-2.5357938,-0.6538388,9.811171
1,1896352178055791,0.043982297,-0.12156218,-0.17256944
0,1896352178055791,-1.1288141,-0.34097722,8.592028
1,1896352180336858,0.05513059,-0.06795876,-0.19303341
0,1896352180336858,-1.1276177,-0.43489552,10.914861
1,1896352182607732,0.049938235,0.02565634,-0.2060143
0,1896352182607732,-1.9076779,-0.4325027,12.161521
1,1896352184867009,0.06582073,0.07574729,-0.20204368
0,1896352184867009,-2.4771698,-0.66161543,11.985648
2,1896352185593267,12.5904,33.3182,-42.846397
3,1896352184867009,-1.8815547,-0.28885826,1.06954
1,1896352187137151,0.080634214,0.06734789,-0.19960022
0,1896352187137151,-1.5936198,-0.3505485,8.240283
1,1896352189419499,0.06337727,0.065973446,-0.20463985
0,1896352189419499,-0.93978107,-0.19680966,7.649854
1,1896352191692509,0.018936822,0.11927144,-0.21426098
0,1896352191692509,-0.93619186,0.064008005,7.9190464
1,1896352193963505,0.01160644,0.09117164,-0.22540927
0,1896352193963505,-1.1425728,0.023330022,9.757333
2,1896352195599126,12.6147995,33.3914,-42.8586
1,1896352196228337,0.06490443,0.03176499,-0.22434026
0,1896352196228337,-1.3776677,-0.6329016,13.039687
1,1896352198490178,0.14844026,0.07849618,-0.21533
0,1896352198490178,-1.4907285,-0.2757728,12.686148
1,1896352200772832,0.20021108,0.11407909,-0.21624629
0,1896352200772832,-0.83688974,-0.37328035,8.219346
1,1896352203044072,0.18921551,0.03848451,-0.20677789
0,1896352203044072,-2.6189444,0.33200413,5.0392847
3,1896352203044072,-1.550951,-0.11464,-1.069046
1,1896352205313787,0.12064589,-0.16630806,-0.1872302
0,1896352205313787,-2.1882362,0.4869394,6.8374906
2,1896352205592534,12.6392,33.0986,-43.6516
1,1896352207572392,0.030695979,-0.16187929,-0.182496
0,1896352207572392,-1.8831514,0.29671,14.396418
1,1896352209854862,-0.017256944,0.03436117,-0.15118915
0,1896352209854862,-1.2329018,0.6903293,11.977274
1,1896352212125614,-0.029932396,0.081855945,-0.12644911
0,1896352212125614,-1.9728823,0.37387854,6.4217377
1,1896352214399357,-0.011148291,-0.016646078,-0.11835514
0,1896352214399357,-2.4502504,-0.3188436,8.452646
2,1896352215604253,12.7978,33.2084,-42.992798
1,1896352216666814,0.051618114,-0.05513059,-0.0926988
0,1896352216666814,-2.5663023,-0.49172506,12.896117
1,1896352218937688,0.1217149,-0.029168816,-0.077579886
0,1896352218937688,-1.1575279,-0.779462,12.65205
1,1896352221209295,0.12889257,0.03772093,-0.08093964
0,1896352221209295,-1.7407784,-0.37507495,8.258827
3,1896352221209295,-1.7505976,-0.28949395,0.3269663
1,1896352223478704,0.09330966,-0.014813482,-0.08124508
0,1896352223478704,-2.0608184,-0.06281159,6.012565
2,1896352225604497,12.3708,32.7936,-43.7614
1,1896352225746831,0.046883907,-0.10751228,-0.08552113
0,1896352225746831,-2.4035904,0.232702,8.49811
1,1896352228007084,0.04428773,-0.11728613,-0.0759
0,1896352228007084,-2.2606192,0.021535404,13.603197
1,1896352230285587,0.07452556,0.01695151,-0.055436023
0,1896352230285587,-2.1038892,-0.41635114,13.846666
1,1896352232561344,0.10094548,0.13423763,-0.031612277
0,1896352232561344,-2.5758736,-0.36909288,10.233504
1,1896352234834782,0.08353582,0.12690726,-0.01817324
0,1896352234834782,-2.9006991,-0.084346995,6.751349
2,1896352235592778,12.5171995,33.342598,-43.0904
1,1896352237104253,0.04550946,0.02687807,-0.0016798794
0,1896352237104253,-2.845066,-0.02751746,7.14437
1,1896352239373052,0.019700404,-0.023060163,0.012675454
0,1896352239373052,-2.5375884,0.093918286,8.841479
3,1896352239373052,-2.471826,-0.0889873,-0.839386
1,1896352241638616,0.017256944,-0.023060163,0.020005837
0,1896352241638616,-2.3623142,-0.04546363,10.288539
1,1896352243914678,0.01572978,0.017256944,0.027641652
0,1896352243914678,-2.7038896,-0.1902294,11.45504
2,1896352245604497,12.9442,33.2816,-43.8346
1,1896352246184880,0.009315695,0.056199603,0.038789943
0,1896352246184880,-3.1513474,-0.31764722,10.245468
1,1896352248457035,0.0016798794,0.0759,0.057268616
0,1896352248457035,-2.894119,-0.06999006,10.065409
1,1896352250723454,-0.0070249503,0.1001819,0.057268616
0,1896352250723454,-2.7834508,0.2638087,9.717851
1,1896352252985233,-0.020463986,0.07696902,0.058337633
0,1896352252985233,-2.8743782,0.34157544,8.414959
1,1896352255268010,-0.03772093,0.042760566,0.058184914
0,1896352255268010,-2.986841,0.39421752,8.065009
2,1896352255593755,12.993,33.110798,-43.236797
1,1896352257539434,-0.057268616,0.013439035,0.05177083
0,1896352257539434,-2.9036903,0.3074777,8.663813
3,1896352257539434,-2.7911453,0.19108355,-0.82861614
1,1896352259811955,-0.05955936,0.0036651916,0.04932737
0,1896352259811955,-2.9706893,0.23928227,10.119247
1,1896352262077153,-0.053450707,0.015882496,0.047036625
0,1896352262077153,-3.07717,0.0526421,10.621141
1,1896352264339726,-0.041080687,0.008552114,0.045814894
0,1896352264339726,-3.4354951,-0.11306087,9.94816
2,1896352265604253,13.0906,32.9644,-43.614998
1,1896352266621282,-0.029932396,-0.019394971,0.04444045
0,1896352266621282,-3.3900316,-0.25962126,9.196216
1,1896352268890995,-0.017562376,-0.024281893,0.040775254
0,1896352268890995,-3.3373895,-0.41336012,10.378868
1,1896352271156010,-4.5814895E-4,0.011148291,0.040927973
0,1896352271156010,-3.5766716,-0.4235296,10.890334
1,1896352273422246,0.026725354,0.011301007,0.037415497
0,1896352273422246,-3.463611,-0.41754755,9.803394
2,1896352275593022,12.1146,32.757,-43.8102
1,1896352275689458,0.0355829,-0.004581489,0.031154128
0,1896352275689458,-3.5234313,-0.22612174,9.243474
3,1896352275689458,-3.3272996,-0.26667693,-0.001657486
1,1896352277960881,0.046731193,-0.015577064,0.025045475
0,1896352277960881,-3.4342988,-0.0077766734,9.445667
1,1896352280232365,0.06154467,-0.028863383,0.021380283
0,1896352280232365,-3.3601213,0.04366901,9.968499
1,1896352282503544,0.07269296,-0.031306844,0.017715093
0,1896352282503544,-3.1603205,0.096311115,9.993624
1,1896352284774358,0.07651087,-0.031306844,0.01038471
0,1896352284774358,-2.9353952,0.23509483,9.62154
2,1896352285592778,12.2122,32.9766,-43.2978
1,1896352287044805,0.07284568,-0.03863723,0.0067195175
0,1896352287044805,-2.7876384,0.3260221,9.435498
1,1896352289315801,0.06795876,-0.04734206,-7.6358154E-4
0,1896352289315801,-2.6404798,0.3260221,9.479167
1,1896352291586614,0.06688975,-0.063224554,-0.009468411
0,1896352291586614,-2.2743778,0.24586253,9.537791
1,1896352293858281,0.064599,-0.08277224,-0.016798794
0,1896352293858281,-1.7455641,0.10348958,9.439087
3,1896352293858281,-2.409301,0.14419669,-0.25506783
2,1896352295601079,12.4928,32.6594,-43.4808
1,1896352296128239,0.078343466,-0.09728029,-0.025503624
0,1896352296128239,-1.2472588,-0.1477568,9.813564
1,1896352298398197,0.09437868,-0.10094548,-0.035277467
0,1896352298398197,-0.93978107,-0.4001996,10.283753
1,1896352300672001,0.11285736,-0.09483683,-0.040011674
0,1896352300672001,-0.8063812,-0.5617151,10.235299
1,1896352302954045,0.12889257,-0.09712757,-0.03756821
0,1896352302954045,-0.6771688,-0.5138587,10.020543
1,1896352305221746,0.14004086,-0.100792766,-0.03268129
0,1896352305221746,-0.6257231,-0.27098715,10.131809
2,1896352305592778,12.3098,32.696,-42.5658
1,1896352307483159,0.1423316,-0.09101892,-0.026419923
0,1896352307483159,-0.4019942,0.08554341,9.995419
1,1896352309763310,0.12873985,-0.08124508,-0.028863383
0,1896352309763310,-0.08315059,0.4953143,9.88834
1,1896352312034794,0.0954477,-0.05467244,-0.031306844
0,1896352312034794,0.18364914,0.8380861,9.560523
3,1896352312034794,-0.37148562,0.20209958,0.04523182
1,1896352314307377,0.056046885,-0.032986723,-0.041080687
0,1896352314307377,0.39900318,1.2149557,9.031111
2,1896352315604497,12.2,32.7936,-44.0176
1,1896352316572087,0.0067195175,-0.013744468,-0.05955936
0,1896352316572087,0.5288138,1.3633107,8.658429
1,1896352318833317,-0.037415497,-0.009315695,-0.084146686
0,1896352318833317,0.8117651,1.2957134,9.37807
1,1896352321116094,-0.06429356,0.011148291,-0.11102476
0,1896352321116094,1.0319048,1.0049855,10.340583
1,1896352323386846,-0.07895433,0.03772093,-0.14019357
0,1896352323386846,1.052842,0.62512493,9.984651
2,1896352325604497,12.2122,32.5496,-43.4198
1,1896352325657720,-0.07742717,0.048563786,-0.16829337
0,1896352325657720,0.88354975,0.23090738,9.527621
1,1896352327912419,-0.069791354,0.037415497,-0.19043724
0,1896352327912419,0.7262217,-0.05503492,9.769895
1,1896352330181767,-0.053603426,0.02397646,-0.20754147
0,1896352330181767,0.86261255,-0.2739782,10.167104
3,1896352330181767,0.8083294,0.22005768,0.023467064
1,1896352332469364,-0.033750303,0.025198191,-0.22464569
0,1896352332469364,0.85842514,-0.35473597,10.147363
1,1896352334742985,-0.011301007,0.019089539,-0.24297164
0,1896352334742985,0.6879365,-0.34037903,9.931411
2,1896352335592290,14.8962,33.3304,-42.0534
1,1896352337014836,0.008552114,-0.0015271631,-0.2564107
0,1896352337014836,0.5694918,-0.26919255,9.7681
1,1896352339278447,0.022296581,-0.02107485,-0.2687807
0,1896352339278447,0.5072784,-0.1692922,9.816555
1,1896352341541143,0.031001411,-0.01985312,-0.27366763
0,1896352341541143,0.4971089,-0.026919255,9.936794
1,1896352343822637,0.031001411,-0.013744468,-0.28099802
0,1896352343822637,0.3164508,0.12502499,9.869197
2,1896352345604253,13.3712,33.0864,-43.676
1,1896352346093450,0.02855795,-0.012675454,-0.28588495
0,1896352346093450,0.21774685,0.26799613,9.605987
1,1896352348367558,0.018784106,-0.011453724,-0.29077184
0,1896352348367558,0.22731815,0.39182472,9.553943
3,1896352348367558,0.4359172,0.109228365,-0.077610016
1,1896352350631413,0.008857546,-0.0065668016,-0.2919936
0,1896352350631413,0.069391854,0.40977088,9.802198
1,1896352352893192,-0.0022907446,0.005497787,-0.2883284
0,1896352352893192,-0.111266255,0.33379877,9.700503
1,1896352355175358,-0.017104227,0.007941248,-0.27977628
0,1896352355175358,-0.04366901,0.23449662,9.547362
2,1896352355593022,12.443999,32.7692,-43.627197
1,1896352357446172,-0.018478673,0.009162978,-0.27122417
0,1896352357446172,-0.14416756,0.124426775,9.776475
1,1896352359719914,-0.022296581,0.014049901,-0.26145032
0,1896352359719914,-0.19680966,-0.0041874396,9.885947
1,1896352361984746,-0.02367103,0.02031127,-0.24663684
0,1896352361984746,-0.32961133,-0.11844472,9.812965
1,1896352364246770,-0.018784106,0.013133603,-0.22953261
0,1896352364246770,-0.47198427,-0.23748764,9.759128
2,1896352365604497,12.3342,32.6594,-43.5174
1,1896352366529973,-0.015271631,0.008399397,-0.20754147
0,1896352366529973,-0.54317075,-0.30388847,9.815957
3,1896352366529973,-0.24697477,-0.13189799,-0.026731491
1,1896352368799687,-0.0106901415,0.007330383,-0.18188512
0,1896352368799687,-0.5814559,-0.32303107,9.882956
1,1896352371073124,-0.005955936,0.0062613687,-0.15607607
0,1896352371073124,-0.62931234,-0.3278167,9.839885
1,1896352373337834,0.0,4.5814895E-4,-0.129198
0,1896352373337834,-0.69092757,-0.2757728,9.810573
1,1896352375598698,0.005955936,-0.004276057,-0.101098195
0,1896352375598698,-0.71007013,-0.24705894,9.772287
2,1896352375612065,12.1634,32.8302,-43.1636
1,1896352377873174,0.009315695,-0.0053450707,-0.07162395
0,1896352377873174,-0.7004988,-0.20458634,9.806385
1,1896352380152715,0.01160644,-0.003970624,-0.04352415
0,1896352380152715,-0.6628119,-0.17108682,9.820743
1,1896352382424993,0.008857546,0.0022907446,-0.01786781
0,1896352382424993,-0.62931234,-0.09032906,9.749556
1,1896352384692754,0.0012217305,-0.0012217305,0.0053450707
0,1896352384692754,-0.552742,-0.047258247,9.716655
2,1896352385592534,12.1634,32.8302,-43.1636
3,1896352384692754,-0.54552305,-0.1764398,-0.03876686
1,1896352386964481,0.0022907446,0.0013744468,0.023823744
0,1896352386964481,-0.4103691,5.9820566E-4,9.731609
1,1896352389235294,-0.0027488936,1.5271631E-4,0.03604105
0,1896352389235294,-0.27756742,0.048454657,9.7704935
1,1896352391506840,-0.005192355,-0.0010690142,0.03848451
0,1896352391506840,-0.15373886,0.091525465,9.742975
1,1896352393776433,-0.003970624,-0.0035124752,0.031154128
0,1896352393776433,0.15553348,0.12981063,9.772886
2,1896352395592534,11.467999,32.6106,-44.3714
1,1896352396043767,-0.006414085,0.008552114,0.020158553
0,1896352396043767,-0.011964113,0.13878371,9.973285
1,1896352398305791,-0.0062613687,0.010995574,0.01038471
0,1896352398305791,-0.106480606,0.20039889,9.786645
1,1896352400588750,-0.0036651916,-0.0,0.0041233404
0,1896352400588750,-0.15314065,0.15792629,9.632906
1,1896352402860112,0.0,-0.009773844,4.5814895E-4
0,1896352402860112,-0.18245272,0.11006984,9.756734
3,1896352402860112,-0.10060334,0.07679055,-0.04994297
1,1896352405129766,0.0038179078,-0.007330383,-7.6358154E-4
0,1896352405129766,-0.1591227,0.019740786,9.876375
2,1896352405592778,11.8462,32.635,-43.4198
1,1896352407388310,0.00870483,-0.002443461,-0.0032070426
0,1896352407388310,-0.23030917,-0.037686955,9.885348
1,1896352409670841,0.00992656,-0.0061086523,4.5814895E-4
0,1896352409670841,-0.2865405,-0.05623133,9.7704935
1,1896352411942082,0.012370021,-0.009773844,0.0041233404
0,1896352411942082,-0.2009971,-0.11784652,9.78485
1,1896352414216557,0.016035212,-0.0047342055,0.007941248
0,1896352414216557,-0.18305093,-0.018544376,9.952946
2,1896352415592534,11.467999,32.4764,-43.4808
1,1896352416482976,0.016035212,1.5271631E-4,0.009162978
0,1896352416482976,-0.16749759,0.019740786,9.713663
1,1896352418753545,0.015882496,-0.0035124752,0.01282817
0,1896352418753545,-0.1058824,0.08673982,9.708878
1,1896352421025151,0.014660766,-0.008399397,0.01282817
0,1896352421025151,0.0029910284,0.07716853,9.771689
3,1896352421025151,-0.06003074,-0.002806779,-0.033032417
1,1896352423295476,0.018478673,-0.01450805,0.011453724
0,1896352423295476,0.10289137,0.06759724,9.820144
1,1896352425565374,0.018478673,-0.012064588,0.007788532
0,1896352425565374,0.16450655,0.08673982,9.839885
2,1896352425593999,12.3586,32.9034,-43.1392
1,1896352427834111,0.020922136,-0.010842858,0.004276057
0,1896352427834111,0.212363,0.081954174,9.792028
1,1896352430099797,0.023518313,-0.01572978,-7.6358154E-4
0,1896352430099797,0.26979074,0.091525465,9.763314
1,1896352432377384,0.022296581,-0.017104227,-0.008093964
0,1896352432377384,0.3361916,0.08255238,9.768699
1,1896352434648075,0.02367103,-0.015882496,-0.011759156
0,1896352434648075,0.39780676,0.096909314,9.768699
2,1896352435592534,12.3098,32.5862,-43.5052
1,1896352436920475,0.024892759,-0.014660766,-0.014202617
0,1896352436920475,0.46959144,0.106480606,9.769297
1,1896352439190922,0.024892759,-0.014660766,-0.014202617
0,1896352439190922,0.526421,0.106480606,9.769297
3,1896352439190922,0.42544523,0.051250324,-0.03528309
1,1896352441463201,0.021227567,-0.017104227,-0.0154243475
0,1896352441463201,0.5688936,0.13040884,9.779466
1,1896352443730352,0.021227567,-0.015882496,-0.016646078
0,1896352443730352,0.59282184,0.1160519,9.77468
2,1896352445604253,11.6876,32.452,-43.5296
1,1896352446000921,0.02367103,-0.014660766,-0.0154243475
0,1896352446000921,0.60717875,0.1160519,9.765109
1,1896352448271001,0.01740966,-0.014660766,-0.0154243475
0,1896352448271001,0.6550352,0.12083755,9.741181
1,1896352450539433,0.011301007,-0.012217305,-0.016646078
0,1896352450539433,0.6975078,0.13998012,9.75135
1,1896352452801151,0.011301007,-0.007330383,-0.0154243475
0,1896352452801151,0.6831509,0.14476576,9.7704935
1,1896352455083867,0.011301007,-0.007483099,-0.016646078
0,1896352455083867,0.6406783,0.13519448,9.77468
2,1896352455592778,12.8588,32.415398,-40.3088
1,1896352457355413,0.008857546,-0.0025961774,-0.01786781
0,1896352457355413,0.59760743,0.13998012,9.760324
3,1896352457355413,0.67075336,0.08722299,-0.045189857
1,1896352459625249,1.5271631E-4,-0.0025961774,-0.02031127
0,1896352459625249,0.52163535,0.15373886,9.774082
1,1896352461881230,-0.0010690142,0.0035124752,-0.02031127
0,1896352461881230,0.40259242,0.14895321,9.769297
1,1896352464151189,-0.0010690142,0.0047342055,-0.021533
0,1896352464151189,0.2745764,0.15373886,9.687343
2,1896352465593022,12.078,32.2934,-42.7488
1,1896352466424932,-0.0071776668,0.0021380284,-0.02397646
0,1896352466424932,0.33200413,0.18245272,9.629914
1,1896352468710515,-0.008399397,-0.003970624,-0.026419923
0,1896352468710515,0.2548356,0.12023934,9.830314
1,1896352470981083,-0.00580322,-0.0027488936,-0.028863383
0,1896352470981083,0.24526432,0.081954174,9.868599
1,1896352473249028,-0.008399397,0.00580322,-0.027641652
0,1896352473249028,0.20757736,0.058624156,9.792028
1,1896352475508854,-0.010842858,0.004581489,-0.028863383
0,1896352475508854,0.18903299,0.07238288,9.748958
2,1896352475605474,10.9922,32.1714,-44.5056
3,1896352475508854,0.32463884,0.053273935,-0.03596115
1,1896352477789922,-0.00580322,-3.0543262E-4,-0.032528576
0,1896352477789922,0.14596218,0.10109676,9.772287
1,1896352480060735,-0.004581489,0.0033597588,-0.032528576
0,1896352480060735,0.14596218,0.1058824,9.835099
1,1896352482333806,-0.004581489,0.008246681,-0.037415497
0,1896352482333806,0.11246266,0.12981063,9.801002
1,1896352484601201,-0.004581489,0.0070249503,-0.039858956
0,1896352484601201,0.06999006,0.11545369,9.767502
2,1896352485592778,10.8946,32.2446,-43.5784
1,1896352486873417,-0.00580322,0.009468411,-0.041080687
0,1896352486873417,0.017347964,0.124426775,9.762716
1,1896352489143192,-0.00580322,0.00580322,-0.04230242
0,1896352489143192,-0.020338992,0.11545369,9.762118
1,1896352491414494,-0.008246681,0.004581489,-0.04352415
0,1896352491414494,-0.0634098,0.11006984,9.776475
1,1896352493685429,-0.008246681,0.004581489,-0.044745877
0,1896352493685429,-0.11066805,0.07238288,9.786046
3,1896352493685429,0.049660273,0.05824053,-0.031615257
2,1896352495592534,11.0898,32.0738,-43.1636
1,1896352495952031,-0.009468411,0.0033597588,-0.04352415
0,1896352495952031,-0.17288144,0.05802595,9.766306
1,1896352498213994,-0.009468411,0.004581489,-0.039858956
0,1896352498213994,-0.17766708,0.03888337,9.766306
1,1896352500496159,-0.009468411,0.0033597588,-0.03863723
0,1896352500496159,-0.2105684,0.019740786,9.795019
1,1896352502766973,-0.008246681,0.004581489,-0.033750303
0,1896352502766973,-0.23928227,0.010169496,9.803992
1,1896352505038762,-0.004581489,0.004581489,-0.030085113
0,1896352505038762,-0.2727818,-0.008973085,9.789636
2,1896352505593999,11.5046,32.3788,-43.4442
1,1896352507301640,-0.0033597588,0.0033597588,-0.028863383
0,1896352507301640,-0.31046873,-0.028115666,9.760324
1,1896352509579289,-0.0022907446,0.0010690142,-0.021533
0,1896352509579289,-0.3152544,-0.028115666,9.789038
1,1896352511850773,-0.0010690142,0.0010690142,-0.016646078
0,1896352511850773,-0.3056831,0.010169496,9.799207
3,1896352511850773,-0.20941988,-0.038124755,-0.022916794
1,1896352514121952,-0.0036651916,0.0047342055,-0.010537425
0,1896352514121952,-0.31046873,0.034097724,9.780065
2,1896352515604497,12.2732,32.696,-43.2124
1,1896352516392460,-0.004886922,0.0035124752,-7.6358154E-4
0,1896352516392460,-0.29132617,0.04366901,9.7609215
1,1896352518667057,-0.0036651916,0.0061086523,0.004276057
0,1896352518667057,-0.28235307,0.076570325,9.7609215
1,1896352520932012,-0.0050396384,0.004886922,0.009162978
0,1896352520932012,-0.22971097,0.07238288,9.747163
1,1896352523202764,-0.007483099,0.002443461,0.010231993
0,1896352523202764,-0.17288144,0.07238288,9.756734
1,1896352525472051,-0.007483099,0.007330383,0.01038471
0,1896352525472051,-0.12023934,0.07238288,9.766306
2,1896352525596685,12.7002,32.9888,-43.2856
1,1896352527742925,-0.00992656,0.008552114,0.01160644
0,1896352527742925,-0.07298109,0.10109676,9.776475
1,1896352530010136,-0.011148291,0.007330383,0.007941248
0,1896352530010136,-0.020338992,0.08673982,9.776475
3,1896352530010136,-0.070641,0.03402652,-0.03973961
1,1896352532285282,-0.011148291,0.0047342055,0.0053450707
0,1896352532285282,0.0077766734,0.081954174,9.7908325
1,1896352534556034,-0.007330383,-0.0036651916,0.00290161
0,1896352534556034,0.026919255,0.06759724,9.801002
2,1896352535604497,12.3708,32.4764,-43.0416
1,1896352536827641,-0.007330383,-0.002443461,4.5814895E-4
0,1896352536827641,0.012562319,0.03888337,9.786046
1,1896352539095158,-0.0036651916,0.0071776668,6.1086525E-4
0,1896352539095158,0.0029910284,0.034097724,9.795618
1,1896352541360234,-0.0012217305,0.0036651916,6.1086525E-4
0,1896352541360234,-0.0059820567,0.024526432,9.786046
1,1896352543638555,-0.0036651916,0.0035124752,-7.6358154E-4
0,1896352543638555,-0.015553347,0.034097724,9.7908325
2,1896352545604253,12.4684,33.001,-41.297
1,1896352545906621,-0.004886922,0.0036651916,0.0016798794
0,1896352545906621,-0.0017946169,0.04366901,9.776475
1,1896352548171758,-0.004886922,-0.002443461,0.0053450707
0,1896352548171758,-0.010767702,0.04366901,9.766904
3,1896352548171758,0.04378277,0.003216572,-0.030171394
1,1896352550446110,-0.0036651916,-0.0,0.0065668016
0,1896352550446110,-0.0059820567,0.07238288,9.766904
1,1896352552703251,-0.0062613687,0.0012217305,0.007788532
0,1896352552703251,0.0029910284,0.081954174,9.7812605
1,1896352554994023,-0.0062613687,0.007330383,0.0067195175
0,1896352554994023,0.012562319,0.10109676,9.777073
2,1896352555593022,12.675799,32.9644,-41.7728
1,1896352557262273,-0.011148291,0.0071776668,0.004276057
0,1896352557262273,-0.0059820567,0.096311115,9.757333
1,1896352559538273,-0.011148291,0.010842858,0.0018325958
0,1896352559538273,-0.025124637,0.096311115,9.762118
1,1896352561800664,-0.012370021,0.0071776668,0.00290161
0,1896352561800664,-0.020338992,0.08673982,9.771689
1,1896352564062688,-0.00992656,0.0071776668,0.004276057
0,1896352564062688,-0.049052864,0.06281159,9.766904
2,1896352565604497,12.5294,32.7082,-41.211597
1,1896352566345585,-0.00992656,0.0096211275,0.0030543262
0,1896352566345585,-0.049052864,0.06759724,9.766904
3,1896352566345585,0.027721796,0.036374398,-0.041493416
1,1896352568615360,-0.011148291,0.0096211275,0.0030543262
0,1896352568615360,-0.07298109,0.06281159,9.7908325
1,1896352570889042,-0.012370021,0.008399397,0.005497787
0,1896352570889042,-0.08733802,0.04366901,9.786046
1,1896352573154179,-0.013591751,0.008399397,0.005497787
0,1896352573154179,-0.08733802,0.03888337,9.790234
1,1896352575418584,-0.012370021,0.012064588,0.005497787
0,1896352575418584,-0.1058824,0.04366901,9.775877
2,1896352575592290,11.7242,32.3178,-41.7606
1,1896352577697881,-0.011148291,0.005955936,0.0041233404
0,1896352577697881,-0.10109676,0.048454657,9.780663
1,1896352579968633,-0.00870483,0.0047342055,0.00290161
0,1896352579968633,-0.14416756,0.048454657,9.785448
1,1896352582241399,-0.011148291,0.0047342055,0.00290161
0,1896352582241399,-0.1585245,0.053240303,9.771091
1,1896352584507207,-0.011148291,0.008399397,0.0030543262
0,1896352584507207,-0.18185452,0.13399807,9.65145
3,1896352584507207,-0.0758217,0.037828002,-0.06711769
2,1896352585594976,11.9925995,32.3666,-41.3824
1,1896352586768681,-0.00870483,0.005955936,0.0030543262
0,1896352586768681,-0.2434697,0.15314065,9.570094
1,1896352589051212,-0.0036651916,0.007330383,0.0030543262
0,1896352589051212,-0.27696922,0.07716853,9.626924
1,1896352591321842,-0.007483099,0.0071776668,0.004276057
0,1896352591321842,-0.2961118,-0.09930214,9.755538
1,1896352593595280,-0.0036651916,0.004886922,0.0030543262
0,1896352593595280,-0.3062813,-0.30388847,10.027721
2,1896352595610112,13.542,33.0742,-41.357998
1,1896352595859807,0.007330383,-0.0012217305,0.004276057
0,1896352595859807,-0.3068795,-0.40378883,10.1904335
1,1896352598122197,0.025961773,-0.012064588,0.007941248
0,1896352598122197,-0.27756742,-0.36131623,10.0468645
1,1896352600404729,0.041996986,-0.024129177,0.009010263
0,1896352600404729,-0.21535404,-0.2416751,9.84168
1,1896352602676274,0.053145275,-0.03634648,0.009010263
0,1896352602676274,-0.14416756,-0.07537391,9.789636
3,1896352602676274,-0.1633249,-0.21812609,0.06984234
1,1896352604948125,0.055588737,-0.03756821,0.007788532
0,1896352604948125,-0.09212367,0.11485548,9.762118
2,1896352605593755,13.3712,33.3182,-41.5654
1,1896352607214481,0.053145275,-0.03268129,0.007788532
0,1896352607214481,-0.034695927,0.3056831,9.705289
1,1896352609486637,0.041996986,-0.023060163,0.0041233404
0,1896352609486637,-0.015553347,0.43848476,9.662816
1,1896352611757450,0.029626964,-0.020616703,0.0016798794
0,1896352611757450,0.026919255,0.5192425,9.634701
1,1896352614028630,0.012370021,-0.012217305,-7.6358154E-4
0,1896352614028630,0.078963146,0.5240282,9.668798
2,1896352615592778,13.3468,33.1718,-41.114
1,1896352616296880,-0.0012217305,-0.0,-7.6358154E-4
0,1896352616296880,0.11246266,0.4671986,9.687941
1,1896352618562444,-0.018478673,0.008399397,-7.6358154E-4
0,1896352618562444,0.1363909,0.37686956,9.672985
1,1896352620840946,-0.029626964,0.0143553335,-0.001985312
0,1896352620840946,0.16031912,0.253041,9.730413
3,1896352620840946,0.13474846,0.2922594,-0.1040535
1,1896352623109807,-0.033292156,0.0143553335,4.5814895E-4
0,1896352623109807,0.1692922,0.12502499,9.792028
1,1896352625383305,-0.036957346,0.018020526,-7.6358154E-4
0,1896352625383305,0.19800608,0.020338992,9.844072
2,1896352625598149,12.090199,32.9034,-41.6874
1,1896352627650334,-0.03573562,0.019242255,-0.001985312
0,1896352627650334,0.19322042,-0.06999006,9.834501
1,1896352629917668,-0.028405234,0.016798794,-7.6358154E-4
0,1896352629917668,0.1692922,-0.10348958,9.8632145
1,1896352632194462,-0.023365596,0.01572978,-0.001985312
0,1896352632194462,0.14117654,-0.098703936,9.867402
1,1896352634463994,-0.016035212,0.013286319,-0.0030543262
0,1896352634463994,0.0741775,-0.061016977,9.833903
2,1896352635604253,12.322,32.3178,-40.8456
1,1896352636736088,-0.013439035,-0.0013744468,-0.0032070426
0,1896352636736088,-0.0065802624,-0.022731815,9.795618
1,1896352639002690,-0.007330383,0.0010690142,-0.0032070426
0,1896352639002690,-0.05383851,0.015553347,9.747761
3,1896352639002690,0.10803693,-0.041019857,-0.0121154785
1,1896352641263738,-0.004886922,0.0035124752,-0.0032070426
0,1896352641263738,-0.11066805,0.034097724,9.775877
1,1896352643546270,-0.0036651916,0.0010690142,-0.004428773
0,1896352643546270,-0.13459627,0.03888337,9.775877
2,1896352645604253,14.0056,33.269398,-41.5044
1,1896352645813909,-0.002443461,0.0047342055,-0.0030543262
0,1896352645813909,-0.16331014,0.03888337,9.766306
1,1896352648079045,-0.002443461,0.002443461,-7.6358154E-4
0,1896352648079045,-0.1680958,0.03888337,9.756734
1,1896352650355473,-0.002443461,0.002443461,-7.6358154E-4
0,1896352650355473,-0.1585245,0.048454657,9.76152
1,1896352652617558,-0.004886922,0.0036651916,0.00290161
0,1896352652617558,-0.14416756,0.03888337,9.771091
1,1896352654902714,-0.002443461,-0.0012217305,0.00290161
0,1896352654902714,-0.11066805,0.024526432,9.785448
2,1896352655594243,13.359,33.062,-41.7362
1,1896352657171270,-0.002443461,-0.0,0.0041233404
0,1896352657171270,-0.058624156,0.019740786,9.771689
3,1896352657171270,-0.04408738,-0.008821398,-0.03584957
1,1896352659443608,0.0012217305,-0.002443461,-7.6358154E-4
0,1896352659443608,-0.011365907,0.010767702,9.800404
1,1896352661711125,0.002443461,-0.002443461,-7.6358154E-4
0,1896352661711125,0.012562319,-0.022731815,9.84826
1,1896352663981083,0.007483099,-0.007330383,-7.6358154E-4
0,1896352663981083,0.012562319,-0.02751746,9.805189
2,1896352665604497,13.8104,32.8668,-40.931
1,1896352666252874,0.011148291,-0.004886922,4.5814895E-4
0,1896352666252874,-0.0059820567,-0.03708875,9.795618
1,1896352668523625,0.016035212,-0.004886922,-6.1086525E-4
0,1896352668523625,-0.039481573,-0.032303106,9.785448
1,1896352670794316,0.02107485,-0.013286319,4.5814895E-4
0,1896352670794316,-0.1058824,0.0011964113,9.747163
1,1896352673065068,0.02107485,-0.013286319,0.0016798794
0,1896352673065068,-0.06819545,0.05802595,9.824331
1,1896352675336247,0.01985312,-0.01695151,0.0016798794
0,1896352675336247,-0.05383851,0.081954174,9.795618
2,1896352675598882,12.2,32.635,-40.626
3,1896352675336247,0.0020714067,-0.01016546,-0.015402794
1,1896352677605840,0.022296581,-0.01450805,4.5814895E-4
0,1896352677605840,0.07477571,0.12502499,9.667004
1,1896352679876531,0.01985312,-0.01817324,-7.6358154E-4
0,1896352679876531,0.16450655,0.12981063,9.849456
1,1896352682146794,0.016187929,-0.004886922,-0.006872234
0,1896352682146794,0.12203395,0.14356937,9.835099
1,1896352684417606,0.013591751,-0.0,-0.0067195175
0,1896352684417606,0.084346995,0.16749759,9.720243
2,1896352685592778,11.8462,32.573997,-42.8708
1,1896352686688420,0.0062613687,0.0012217305,-0.006872234
0,1896352686688420,0.0317049,0.19621146,9.686146
1,1896352688959416,0.0012217305,0.0022907446,-0.004428773
0,1896352688959416,0.0317049,0.17706887,9.762716
